\relax 
\@writefile{toc}{\contentsline {section}{\numberline {1}Objectives}{1}}
\@writefile{toc}{\contentsline {section}{\numberline {2}Background \& Experiment Setup}{1}}
\newlabel{background}{{2}{1}}
\@writefile{toc}{\contentsline {subsection}{\numberline {2.1}Absorption of Light}{1}}
\newlabel{eq:decay}{{1}{1}}
\@writefile{lof}{\contentsline {figure}{\numberline {1}{\ignorespaces The mass attenuation coefficient for soft tissue at a variety of photon energies. A variety of processes are noted. }}{2}}
\newlabel{attenuation}{{1}{2}}
\newlabel{eq:logdecay}{{2}{3}}
\@writefile{toc}{\contentsline {section}{\numberline {3}Experimental Procedures}{3}}
\@writefile{toc}{\contentsline {section}{\numberline {4}Data Analysis}{3}}
\@writefile{lof}{\contentsline {figure}{\numberline {2}{\ignorespaces Gamma ray spectrum of the main peak of $^{137}$Cs with beef patty shielding. }}{3}}
\newlabel{Nobun}{{2}{3}}
\@writefile{lof}{\contentsline {figure}{\numberline {3}{\ignorespaces Gamma ray spectrum of the main peak of $^{137}$Cs with aluminum slab shielding. }}{4}}
\newlabel{Alum}{{3}{4}}
\@writefile{lof}{\contentsline {figure}{\numberline {4}{\ignorespaces Gamma ray spectrum of the main peak of $^{137}$Cs with lead slab shielding. }}{4}}
\newlabel{Lead}{{4}{4}}
\@writefile{lof}{\contentsline {figure}{\numberline {5}{\ignorespaces Gamma ray spectrum of the main peak of $^{137}$Cs with beef patty shielding. }}{5}}
\newlabel{Beef}{{5}{5}}
\@writefile{lof}{\contentsline {figure}{\numberline {6}{\ignorespaces Gamma ray spectrum of the main peak of $^{137}$Cs with volumes of water providing shielding. }}{5}}
\newlabel{Water}{{6}{5}}
\citation{NIST_ASD}
\citation{bethesda1989tissue}
\@writefile{toc}{\contentsline {section}{\numberline {5}Results and Conclusions}{6}}
\@writefile{lot}{\contentsline {table}{\numberline {1}{\ignorespaces Measured versus NIST Values for $\frac  {\mu }{\rho }$ at 0.6 MeV (available in the NIST database, close to the $^{137}$Cs peak of 0.662 MeV)}}{6}}
\newlabel{tab:nist}{{1}{6}}
\bibstyle{unsrt}
\bibdata{sample}
\bibcite{NIST_ASD}{1}
\bibcite{bethesda1989tissue}{2}
