\select@language {english}
\contentsline {section}{\numberline {1}Consistency}{1}{section.1}
\contentsline {section}{\numberline {2}Second Lecture - Sufficiency}{4}{section.2}
\contentsline {paragraph}{Intuition}{4}{section*.4}
\contentsline {subsection}{\numberline {2.1}Rao-Blackwell Theorem}{5}{subsection.2.1}
