\relax 
\providecommand\hyper@newdestlabel[2]{}
\providecommand\HyperFirstAtBeginDocument{\AtBeginDocument}
\HyperFirstAtBeginDocument{\ifx\hyper@anchor\@undefined
\global\let\oldcontentsline\contentsline
\gdef\contentsline#1#2#3#4{\oldcontentsline{#1}{#2}{#3}}
\global\let\oldnewlabel\newlabel
\gdef\newlabel#1#2{\newlabelxx{#1}#2}
\gdef\newlabelxx#1#2#3#4#5#6{\oldnewlabel{#1}{{#2}{#3}}}
\AtEndDocument{\ifx\hyper@anchor\@undefined
\let\contentsline\oldcontentsline
\let\newlabel\oldnewlabel
\fi}
\fi}
\global\let\hyper@last\relax 
\gdef\HyperFirstAtBeginDocument#1{#1}
\providecommand\HyField@AuxAddToFields[1]{}
\providecommand\HyField@AuxAddToCoFields[2]{}
\select@language{english}
\@writefile{toc}{\select@language{english}}
\@writefile{lof}{\select@language{english}}
\@writefile{lot}{\select@language{english}}
\@writefile{toc}{\contentsline {section}{\numberline {1}Introduction}{1}{section.1}}
\@writefile{toc}{\contentsline {subsection}{\numberline {1.1}Linear Algebra}{1}{subsection.1.1}}
\@writefile{toc}{\contentsline {subsection}{\numberline {1.2}Optimization}{2}{subsection.1.2}}
\@writefile{toc}{\contentsline {subsection}{\numberline {1.3}What is Linear Optimization?}{2}{subsection.1.3}}
\@writefile{toc}{\contentsline {paragraph}{Observations}{3}{section*.2}}
\newlabel{{eq:LP}}{{1}{3}{Observations}{equation.1.1}{}}
\@writefile{toc}{\contentsline {subsection}{\numberline {1.4}Standard Form}{4}{subsection.1.4}}
\@writefile{toc}{\contentsline {subsubsection}{\numberline {1.4.1}Steps for Creating a Linear Optimization Problem}{4}{subsubsection.1.4.1}}
\@writefile{toc}{\contentsline {section}{\numberline {2}Summary of Course}{4}{section.2}}
\@writefile{toc}{\contentsline {section}{\numberline {3}Lecture Two}{4}{section.3}}
\@writefile{toc}{\contentsline {subsection}{\numberline {3.1}Geometric Insight}{6}{subsection.3.1}}
