85.000	510.00								
86.000	845.00								
86.167	946.00								
86.333	954.00								
86.500	1016.0								
86.666	1038.0								
86.833	1013.0								
87.000	1000.0								
87.167	858.00								
87.333	695.00								
87.500	536.00								
87.666	487.00								
88.000	515.00								
89.000	521.00								
90.000	491.00								
91.000	500.00								
92.000	537.00								
93.000	505.00								
94.000	519.00								
95.000	521.00								
96.000	570.00								
97.000	540.00								
97.333	572.00								
97.500	579.00								
97.666	615.00								
97.833	766.00								
98.000	1245.0								
98.166	1366.0								
98.333	1777.0								
98.500	2419.0								
98.666	2893.0								
98.833	3352.0								
99.000	3587.0								
99.166	3928.0								
99.333	3976.0								
99.500	3842.0								
99.666	3114.0								
99.833	2045.0								
100.00	1302.0								
100.17	948.00								
100.33	590.00								
100.67	558.00								
101.00	590.00								
102.00	505.00								
103.00	527.00								
104.00	486.00								
105.00	496.00								
106.00	495.00								
107.00	503.00								
108.00	507.00								
109.00	457.00								
110.00	461.00								
