\relax 
\select@language{english}
\@writefile{toc}{\select@language{english}}
\@writefile{lof}{\select@language{english}}
\@writefile{lot}{\select@language{english}}
\newlabel{eq:wave}{{1}{2}}
\newlabel{eq:wave@cref}{{[equation][1][]1}{2}}
