\relax 
\providecommand\hyper@newdestlabel[2]{}
\providecommand\HyperFirstAtBeginDocument{\AtBeginDocument}
\HyperFirstAtBeginDocument{\ifx\hyper@anchor\@undefined
\global\let\oldcontentsline\contentsline
\gdef\contentsline#1#2#3#4{\oldcontentsline{#1}{#2}{#3}}
\global\let\oldnewlabel\newlabel
\gdef\newlabel#1#2{\newlabelxx{#1}#2}
\gdef\newlabelxx#1#2#3#4#5#6{\oldnewlabel{#1}{{#2}{#3}}}
\AtEndDocument{\ifx\hyper@anchor\@undefined
\let\contentsline\oldcontentsline
\let\newlabel\oldnewlabel
\fi}
\fi}
\global\let\hyper@last\relax 
\gdef\HyperFirstAtBeginDocument#1{#1}
\providecommand\HyField@AuxAddToFields[1]{}
\providecommand\HyField@AuxAddToCoFields[2]{}
\select@language{english}
\@writefile{toc}{\select@language{english}}
\@writefile{lof}{\select@language{english}}
\@writefile{lot}{\select@language{english}}
\@writefile{toc}{\contentsline {section}{\numberline {1}Quantum Scattering}{1}{section.1}}
\@writefile{thm}{\contentsline {remark}{{Remark}{1}{}}{2}{remark.1}}
\@writefile{thm}{\contentsline {proof}{{Proof}{1}{}}{3}{proof.1}}
\@writefile{toc}{\contentsline {section}{\numberline {2}Unitary Limit}{4}{section.2}}
\@writefile{toc}{\contentsline {subsection}{\numberline {2.1}Optical Theorem}{4}{subsection.2.1}}
\@writefile{toc}{\contentsline {section}{\numberline {3}Review}{5}{section.3}}
\@writefile{thm}{\contentsline {remark}{{Remark}{2}{}}{5}{remark.2}}
\@writefile{toc}{\contentsline {section}{\numberline {4}Perfectly Rigid Sphere Scattering}{5}{section.4}}
\@writefile{toc}{\contentsline {section}{\numberline {5}Finite Square Well Potential Scattering}{7}{section.5}}
\newlabel{eq:outside}{{{Through similar computations as last time}}{8}{Finite Square Well Potential Scattering}{AMS.27}{}}
\newlabel{eq:outside@cref}{{[equation][2147483647][]{Through similar computations as last time}}{8}}
\@writefile{toc}{\contentsline {subsection}{\numberline {5.1}Boundary Conditions}{8}{subsection.5.1}}
\@writefile{toc}{\contentsline {subsection}{\numberline {5.2}Limits}{8}{subsection.5.2}}
