\select@language {english}
\contentsline {section}{\numberline {1}Minimum Variance Estimation}{1}{section.1}
\contentsline {section}{\numberline {2}Methods of Estimation}{3}{section.2}
\contentsline {subsection}{\numberline {2.1}Method of Moments}{3}{subsection.2.1}
\contentsline {section}{\numberline {3}General Method of Moments}{4}{section.3}
\contentsline {section}{\numberline {4}The Method of Maximum Likelihood}{5}{section.4}
\contentsline {subsection}{\numberline {4.1}Method}{5}{subsection.4.1}
