\relax 
\@writefile{toc}{\contentsline {section}{\numberline {1}Objectives}{1}}
\@writefile{toc}{\contentsline {section}{\numberline {2}Background \& Theory}{1}}
\newlabel{background}{{2}{1}}
\@writefile{toc}{\contentsline {subsection}{\numberline {2.1}X-ray Production}{1}}
\@writefile{lof}{\contentsline {figure}{\numberline {1}{\ignorespaces An example of an electron curving around a nucleus. It gives off Bremsstrahlung light as it accelerates around the center. Note that it spends more time near the center while it curves.}}{2}}
\newlabel{Brem}{{1}{2}}
\@writefile{toc}{\contentsline {subsection}{\numberline {2.2}X-ray Detection}{2}}
\newlabel{br_law}{{1}{2}}
\@writefile{lof}{\contentsline {figure}{\numberline {2}{\ignorespaces A geiger counter. The ionized particles generally go to the edge of the tube, as the electrons go to the conducting wire and head down it, causing a measure-able current.}}{3}}
\newlabel{geig}{{2}{3}}
\@writefile{toc}{\contentsline {section}{\numberline {3}Experimental Procedures}{3}}
\@writefile{lof}{\contentsline {figure}{\numberline {3}{\ignorespaces An illustration of Bragg diffraction.}}{4}}
\newlabel{bragg}{{3}{4}}
\@writefile{lof}{\contentsline {figure}{\numberline {4}{\ignorespaces Producing x-rays. The electrons are produced by heating up a filament, which then gives off electrons via thermionic emission. A rectified and filtered DC voltage between the cathode and anode is applied, accelerating the electrons to 20-30 keV. The electrons then hit the target and give off light via the two methods referenced in Section 2\hbox {}.}}{4}}
\newlabel{roentgen}{{4}{4}}
\@writefile{lof}{\contentsline {figure}{\numberline {5}{\ignorespaces Experimental setup.}}{5}}
\newlabel{exp_setup}{{5}{5}}
\@writefile{toc}{\contentsline {section}{\numberline {4}Data Analysis}{5}}
\newlabel{spacing}{{2}{5}}
\@writefile{lof}{\contentsline {figure}{\numberline {6}{\ignorespaces The experimental data, with the number of counts (intensity of the light) plotted against $2\theta $. The third peak wasn't fit when trying to fit all four peaks at once, but it was also successfully fit on its own. Fitting was done using the \texttt  {scipy.optimize} package in Python.}}{6}}
\newlabel{data_fit}{{6}{6}}
\@writefile{lot}{\contentsline {table}{\numberline {1}{\ignorespaces Measured v. NIST}}{6}}
\citation{holzer1997k}
\bibstyle{unsrt}
\bibdata{sample}
\bibcite{holzer1997k}{{1}{}{{}}{{}}}
\providecommand\NAT@force@numbers{}\NAT@force@numbers
\@writefile{toc}{\contentsline {section}{\numberline {5}Results and Conclusions}{7}}
