\select@language {english}
\contentsline {section}{\numberline {1}Conf. Intervals, cont'd}{1}{section.1}
\contentsline {subsection}{\numberline {1.1}Small-Sample Confidence Intervals}{2}{subsection.1.1}
\contentsline {paragraph}{Setup}{2}{section*.2}
\contentsline {paragraph}{Goal}{2}{section*.3}
