\relax 
\providecommand\hyper@newdestlabel[2]{}
\providecommand\HyperFirstAtBeginDocument{\AtBeginDocument}
\HyperFirstAtBeginDocument{\ifx\hyper@anchor\@undefined
\global\let\oldcontentsline\contentsline
\gdef\contentsline#1#2#3#4{\oldcontentsline{#1}{#2}{#3}}
\global\let\oldnewlabel\newlabel
\gdef\newlabel#1#2{\newlabelxx{#1}#2}
\gdef\newlabelxx#1#2#3#4#5#6{\oldnewlabel{#1}{{#2}{#3}}}
\AtEndDocument{\ifx\hyper@anchor\@undefined
\let\contentsline\oldcontentsline
\let\newlabel\oldnewlabel
\fi}
\fi}
\global\let\hyper@last\relax 
\gdef\HyperFirstAtBeginDocument#1{#1}
\providecommand\HyField@AuxAddToFields[1]{}
\providecommand\HyField@AuxAddToCoFields[2]{}
\select@language{english}
\@writefile{toc}{\select@language{english}}
\@writefile{lof}{\select@language{english}}
\@writefile{lot}{\select@language{english}}
\@writefile{thm}{\contentsline {exercise}{{Exercise}{6.{1}}{Coin Flipping}}{1}{exercise.6.1}}
\@writefile{thm}{\contentsline {solution}{{Solution}{1}{}}{1}{solution.1}}
\@writefile{thm}{\contentsline {exercise}{{Exercise}{6.{2}}{Weird Running Man}}{1}{exercise.6.2}}
\@writefile{thm}{\contentsline {solution}{{Solution}{2}{}}{1}{solution.2}}
\@writefile{thm}{\contentsline {exercise}{{Exercise}{6.{3}}{}}{2}{exercise.6.3}}
\@writefile{thm}{\contentsline {solution}{{Solution}{3}{}}{2}{solution.3}}
\@writefile{thm}{\contentsline {exercise}{{Exercise}{6.{4}}{Flea Movement}}{3}{exercise.6.4}}
\@writefile{thm}{\contentsline {solution}{{Solution}{4}{}}{3}{solution.4}}
\global\def\markivsolutionv{\ensuremath {\blacksquare }}
\@writefile{thm}{\contentsline {exercise}{{Exercise}{6.{5}}{Large Company}}{3}{exercise.6.5}}
\@writefile{lot}{\contentsline {table}{\numberline {1}{\ignorespaces Transitions\relax }}{4}{table.caption.1}}
\@writefile{thm}{\contentsline {solution}{{Solution}{5}{}}{4}{solution.5}}
\global\def\markvsolutioni{\ensuremath {\blacksquare }}
\@writefile{thm}{\contentsline {exercise}{{Exercise}{6.{6}}{Larger Matrix}}{4}{exercise.6.6}}
\@writefile{thm}{\contentsline {solution}{{Solution}{6}{}}{4}{solution.6}}
\global\def\markvisolution{\ensuremath {\blacksquare }}
