\select@language {english}
\contentsline {section}{\numberline {1}Hypothesis Testing}{1}{section.1}
\contentsline {subsection}{\numberline {1.1}Calculating $\beta $ - P(Type II Error)}{1}{subsection.1.1}
\contentsline {paragraph}{Example Test:}{1}{section*.2}
