\relax 
\providecommand\hyper@newdestlabel[2]{}
\providecommand\HyperFirstAtBeginDocument{\AtBeginDocument}
\HyperFirstAtBeginDocument{\ifx\hyper@anchor\@undefined
\global\let\oldcontentsline\contentsline
\gdef\contentsline#1#2#3#4{\oldcontentsline{#1}{#2}{#3}}
\global\let\oldnewlabel\newlabel
\gdef\newlabel#1#2{\newlabelxx{#1}#2}
\gdef\newlabelxx#1#2#3#4#5#6{\oldnewlabel{#1}{{#2}{#3}}}
\AtEndDocument{\ifx\hyper@anchor\@undefined
\let\contentsline\oldcontentsline
\let\newlabel\oldnewlabel
\fi}
\fi}
\global\let\hyper@last\relax 
\gdef\HyperFirstAtBeginDocument#1{#1}
\providecommand\HyField@AuxAddToFields[1]{}
\providecommand\HyField@AuxAddToCoFields[2]{}
\select@language{english}
\@writefile{toc}{\select@language{english}}
\@writefile{lof}{\select@language{english}}
\@writefile{lot}{\select@language{english}}
\@writefile{lof}{\contentsline {figure}{\numberline {1}{\ignorespaces The code necessary to produce this graph was included in another appendix below. I'm surprised the dispersion relation for a plasma is this simple!\relax }}{3}{figure.caption.3}}
\providecommand*\caption@xref[2]{\@setref\relax\@undefined{#1}}
\newlabel{fig:disp}{{1}{3}{The code necessary to produce this graph was included in another appendix below. I'm surprised the dispersion relation for a plasma is this simple!\relax }{figure.caption.3}{}}
\newlabel{fig:disp@cref}{{[figure][1][]1}{3}}
\newlabel{eq:wave}{{5}{3}{Waveguide}{equation.6.5}{}}
\newlabel{eq:wave@cref}{{[equation][5][]5}{3}}
\@writefile{toc}{\contentsline {section}{\numberline {A}Skin Depth Code}{7}{appendix.A}}
\@writefile{lol}{\contentsline {lstlisting}{skin\textunderscore depth.py}{7}{lstlisting.-1}}
\@writefile{toc}{\contentsline {section}{\numberline {B}Dispersion Relation Code}{8}{appendix.B}}
\@writefile{lol}{\contentsline {lstlisting}{dispersion.py}{8}{lstlisting.-2}}
