\select@language {english}
\contentsline {section}{\numberline {1}Algebra of Angular Momentum - Cont'd}{1}{section.1}
\contentsline {subsection}{\numberline {1.1}Review}{1}{subsection.1.1}
\contentsline {section}{\numberline {2}Systems of Identical Particles}{4}{section.2}
\contentsline {subsection}{\numberline {2.1}Two Particles}{5}{subsection.2.1}
\contentsline {subsection}{\numberline {2.2}Multiparticle}{5}{subsection.2.2}
