\relax 
\providecommand\hyper@newdestlabel[2]{}
\providecommand\HyperFirstAtBeginDocument{\AtBeginDocument}
\HyperFirstAtBeginDocument{\ifx\hyper@anchor\@undefined
\global\let\oldcontentsline\contentsline
\gdef\contentsline#1#2#3#4{\oldcontentsline{#1}{#2}{#3}}
\global\let\oldnewlabel\newlabel
\gdef\newlabel#1#2{\newlabelxx{#1}#2}
\gdef\newlabelxx#1#2#3#4#5#6{\oldnewlabel{#1}{{#2}{#3}}}
\AtEndDocument{\ifx\hyper@anchor\@undefined
\let\contentsline\oldcontentsline
\let\newlabel\oldnewlabel
\fi}
\fi}
\global\let\hyper@last\relax 
\gdef\HyperFirstAtBeginDocument#1{#1}
\providecommand\HyField@AuxAddToFields[1]{}
\providecommand\HyField@AuxAddToCoFields[2]{}
\select@language{english}
\@writefile{toc}{\select@language{english}}
\@writefile{lof}{\select@language{english}}
\@writefile{lot}{\select@language{english}}
\@writefile{toc}{\contentsline {section}{\numberline {1}Diffraction Conditions (continued)}{1}{section.1}}
\newlabel{eq:sc_amp}{{1}{1}{Diffraction Conditions (continued)}{equation.1.1}{}}
\newlabel{eq:sc_amp@cref}{{[equation][1][]1}{1}}
\@writefile{toc}{\contentsline {subsection}{\numberline {1.1}Deriving Bragg's Law}{2}{subsection.1.1}}
\@writefile{toc}{\contentsline {section}{\numberline {2}Brillouin Zones of 2-d Square Lattice}{2}{section.2}}
\@writefile{toc}{\contentsline {subsection}{\numberline {2.1}FCC Real Space}{3}{subsection.2.1}}
\@writefile{toc}{\contentsline {subsection}{\numberline {2.2}Perturbation Theory}{3}{subsection.2.2}}
\@writefile{toc}{\contentsline {section}{\numberline {3}Structure Factor}{3}{section.3}}
\@writefile{toc}{\contentsline {subsection}{\numberline {3.1}FCC}{4}{subsection.3.1}}
\@writefile{toc}{\contentsline {subsection}{\numberline {3.2}Form Factor}{4}{subsection.3.2}}
\@writefile{toc}{\contentsline {section}{\numberline {4}CHapter 4 - Phonons}{5}{section.4}}
