\relax 
\select@language{english}
\@writefile{toc}{\select@language{english}}
\@writefile{lof}{\select@language{english}}
\@writefile{lot}{\select@language{english}}
\newlabel{eq:dustbunny}{{3}{5}}
\newlabel{eq:dustbunny@cref}{{[equation][3][]3}{5}}
\newlabel{eq:mst}{{4}{5}}
\newlabel{eq:mst@cref}{{[equation][4][]4}{5}}
\newlabel{eq:force_st_tens}{{5}{5}}
\newlabel{eq:force_st_tens@cref}{{[equation][5][]5}{5}}
\@writefile{lof}{\contentsline {figure}{\numberline {1}{\ignorespaces Magnetic dipole with field $B_0$ only in the $z$ direction\relax }}{7}}
\providecommand*\caption@xref[2]{\@setref\relax\@undefined{#1}}
\newlabel{fig:dipole}{{1}{7}}
\newlabel{fig:dipole@cref}{{[figure][1][]1}{7}}
