Source,Date,Title,Content,Name,Rating,Version
"Apartments & Rentals by Walk Score - Find Your Apartment for Rent, Condo, House or Home",2018-01-13,"Highly recommend!","I don’t write reviews often but I’ve used this app for a few years now and feel it deserves one. Walk Score makes apartment hunting in Boston a lot easier because I can see if Grocery Stores, public transportation, a CVS, etc are close by. Makes not having a car very easy.",NickCivitarese,5,5.6
"Apartments & Rentals by Walk Score - Find Your Apartment for Rent, Condo, House or Home",2017-11-24,"Poor UI and few features","This app could be so helpful!  It has so much potential.  Yet it falls short in just about every way.  It has a bad interface and you can't access much helpful information.",dcumberland,1,5.6
"Apartments & Rentals by Walk Score - Find Your Apartment for Rent, Condo, House or Home",2017-11-19,"Please update","Wish you could look at the map and see the color overlay for walk score like on the website.",liondreams,3,5.6
"Apartments & Rentals by Walk Score - Find Your Apartment for Rent, Condo, House or Home",2017-08-30,"Buggy layout","After working cleanly for a few minutes, the ""Neighborhoods"" section started rendering pages with the right 1/3 cut off, and scrolling vertically is impossible. Renders the app almost useless. Needs fixing ASAP.","a.h.s. boy",2,5.6
"Apartments & Rentals by Walk Score - Find Your Apartment for Rent, Condo, House or Home",2017-08-14,"Looking for walkable apartment for my elderly parents","This app is just the thing I need.",Monkmane,5,5.6
"Apartments & Rentals by Walk Score - Find Your Apartment for Rent, Condo, House or Home",2017-08-14,"Good for travel","I travel the US often and this app has helped me discover new businesses and decide where I should visit. Quite useful.",BBButterworth,5,5.6
"Apartments & Rentals by Walk Score - Find Your Apartment for Rent, Condo, House or Home",2017-06-04,"Improve the Features","Expand the experience on the Table app to have the same options such as PC/ laptop versions - ""Gonna to Have "" feature is so helpful",AmBrWvS,2,5.6
"Apartments & Rentals by Walk Score - Find Your Apartment for Rent, Condo, House or Home",2017-04-22,"Great concept but terrible execution","Living in a walkable community adds quality to life - visiting neighbors, and health benefits of walking. 

But this app applies walk scores to entire cities that vary greatly, some areas within the city may be miles from the nearest commercial convenience, or miles to the nearest school.

Users of app need to be able to add emphasis to what they feel is important to be able to walk to: schools vs coffee for instance. 

Add information as to exiting sidewalks or not in the area, and up the score if sidewalks exist that go all the way to the public convenience or establishment (same for bike trails).

No option exists to narrow down to neighborhoods and subdivision names. This requires public records searches by web developers but would make app better and far more usable.

Finally, why'd the the affiliation with just rental apartments? We are house shopping and using the app. Please get licensed to link to website like Zillow.com.",BigKidEL,1,5.6
"Apartments & Rentals by Walk Score - Find Your Apartment for Rent, Condo, House or Home",2017-04-19,"Inconsistent with website. Stupid","My wife pulls a walkscore using a browser. I used this app. The scores are not the same and often not close.",Mark_Twain,1,5.6
"Apartments & Rentals by Walk Score - Find Your Apartment for Rent, Condo, House or Home",2017-03-29,"Found our next place!","We're moving long distance this summer, and we found the perfect place on Walk Score!",Moving2kingston,5,5.6
"Apartments & Rentals by Walk Score - Find Your Apartment for Rent, Condo, House or Home",2017-03-16,"Darling! Please Add 'KEYWORDS' to Searches!","My dearest WalkScore, you would be ssso perfect if only you allowed for keywords and custom searches. 
You recall that you found us our perfectly wonderful loft in Portland and we have totally loved it.  However, now we're moving to one of 4 cities across the U.S. and our criteria include 'garage' and 'fireplace'. But sifting through the thousands of places you (thankfully) list in Cambridge and D.C. alone is taking all my time, so please add advanced search options and keywords, Sweetheart... 
Don't make me turn to Trulia or HotPads...
Love, On the Move Again",listenupgoob,4,5.6
"Apartments & Rentals by Walk Score - Find Your Apartment for Rent, Condo, House or Home",2017-03-08,"Apartments and Rentals by Walkscore","Apartments and Rentals by Walkscore is a great alternative to have to the more regular mainline real estate applications people are most likely to use. This app provides a unique specific duty and that is to show the walking distance between a property and places people will most likely commute to such as work, school, restaurants and more. The app does a good job of providing a measurement to determine how convenient a place is for walking and that is the Walkscore that goes from 0 to 100. The app works like a regular real estate application where you put in a location and from there you will see a list or map of available properties and along with the usual data of rental price, rooms, image gallery etc. More importantly you will also see the Walkscore and a list of nearby businesses and services where the exact miles distance is given. I tested the app on my neighborhood  and the distance between my place and all the nearby businesses, school and transportation options were listed correctly. In a day and age where more and more people would rather live in a place where they do not have to rely on owning vehicles, and be within walking distance to the places they travel to or visit often, this app makes the weeding out process much easier.","D. Hill",4,5.6
"Apartments & Rentals by Walk Score - Find Your Apartment for Rent, Condo, House or Home",2017-02-27,"Does what it needs to do with no fuss.","Great option for looking for apartments in walkable neighborhoods. One star deducted because important things like traffic speed, roadway width, sidewalk width, crosswalk density, crosswalk signal wait times are not taken into account. I live in a walkscore of 98 in Miami but it feels more like a 75 compared with other cities.",HurricaneMan1992,4,5.6
"Apartments & Rentals by Walk Score - Find Your Apartment for Rent, Condo, House or Home",2017-02-21,"Great app","Love this app! It's threat if you're looking for a place to live. Shows you what's around places you're interested in. Love it.",Cliffvonwinckelmann,5,5.6
"Apartments & Rentals by Walk Score - Find Your Apartment for Rent, Condo, House or Home",2017-02-12,"Outdated info","Terribly obsolete data. Not helpful","Ev ft",2,5.6
"Apartments & Rentals by Walk Score - Find Your Apartment for Rent, Condo, House or Home",2017-02-04,"Exactly the app I need for apartment hunting!","I was looking for an easy way to find an apartment that is within walking distance of a certain location and this gave me a good idea of where to find apartments based on access to transportation and retail!",veronicagruta,5,5.6
"Apartments & Rentals by Walk Score - Find Your Apartment for Rent, Condo, House or Home",2017-01-07,"Old listings","Full of old listings. If you're looking for cheap apartments it'll show you public housing. Waste of time.",Taxibear,1,5.6
"Apartments & Rentals by Walk Score - Find Your Apartment for Rent, Condo, House or Home",2017-01-01,"Commute feature is amazing","For someone looking at moving across the country to a new city, the commute time feature is a life saver! Not knowing for sure how far out you can go while still traveling for a reasonable amount of time can make other app searches really frustrating, but this app focuses on the things that are most important, like walkability, pet friendliness, and distance from work, while still allowing you to adjust for bedrooms, bathrooms, and price. 
I like the features other apps have like the crime map on Trulia or the school ratings on Trulia and Zillow, but this app makes it really easy to find listing that fit the basics and then we can go from there to check the crime and school ratings later. Definitely recommend.",loveanddeath,5,5.6
"Apartments & Rentals by Walk Score - Find Your Apartment for Rent, Condo, House or Home",2016-11-25,"I'm confused:/","How do you use this! I don't see where you input data when seeking apt. rental? All I get is my neighborhood???",Cheeky.Attitude,2,5.6
"Apartments & Rentals by Walk Score - Find Your Apartment for Rent, Condo, House or Home",2016-11-18,"Great info","The app is easy to use and a huge help in determining walkability and character of neighborhoods","Jim pizza",5,5.6
"Apartments & Rentals by Walk Score - Find Your Apartment for Rent, Condo, House or Home",2016-11-06,"Not polished but a true gem if you love not using a car","It's not perfect but it is great for finding good neighborhoods/housing. Some bugs and dumb options...like a popup suggesting I download the app cause it's ""really fast"". Um I'm using the app. Smh.",Begazo,3,5.6
"Apartments & Rentals by Walk Score - Find Your Apartment for Rent, Condo, House or Home",2016-10-26,"Whoa this app stinks","So I liked the walk score website because you could see how long it would take to walk to stuff near you, but it seems they got ride of that feature and make you get an app... that doesn't have that feature.

So it just seems like this is a weaker version of yelp or google maps.",JoeBob4075347,1,5.6
"Apartments & Rentals by Walk Score - Find Your Apartment for Rent, Condo, House or Home",2016-10-06,"Please add crime grade to the app","UI feels like on an old iOS. And I really miss crime map you have on your website.",yas375,3,5.6
"Apartments & Rentals by Walk Score - Find Your Apartment for Rent, Condo, House or Home",2016-07-20,"A very beautiful and easy app for rent 👌🏻","This app make you life easier, by providing a lot of details in searching and by showing every thing on the map.
I advice all the people that want to rent or to know about houses and properties to download this app.","Abd el ghani kannout",5,5.6
"Apartments & Rentals by Walk Score - Find Your Apartment for Rent, Condo, House or Home",2016-07-17,"Amazing app and amazing service","This is without a doubt the best app to use if you are trying to find a place to live in a new town or if you want to improve your place in the world by being closer to things that matter. Like work or school and groceries, etc.! Get on there and try out some of the filters. I was so surprised by how thoughtfully this app was designed.",swraia,5,5.6
"Apartments & Rentals by Walk Score - Find Your Apartment for Rent, Condo, House or Home",2016-07-06,"Realtor THE WASILKO GROUP Howard Hanna","As a Realtor, I find this app to be extremely helpful for my clients who are choosing homes based on conveniences and walkability. Easy to provide them with instant info using this app.","Peggy Beckerman",5,5.6
"Apartments & Rentals by Walk Score - Find Your Apartment for Rent, Condo, House or Home",2016-07-02,"A good start","This app is great for when you're looking to move. Helps evaluate different locations. But I wish the app also helped people who aren't moving and just want to explore their area, see what's walkable.",CalifDude,4,5.6
"Apartments & Rentals by Walk Score - Find Your Apartment for Rent, Condo, House or Home",2016-05-09,"Very helpful","Moving to an area with plenty public transportation to an area where a car would be definitely useful and I don't drive ... Yet . This app maps everything you out from supermarkets to schools within walking distance 👍🏽👍🏽👍🏽",Pcflorida,5,5.6
"Apartments & Rentals by Walk Score - Find Your Apartment for Rent, Condo, House or Home",2016-04-19,"Awesome app!","This app is a must have if you are looking to relocate. I love it🤗","LA Tillis",5,5.6
"Apartments & Rentals by Walk Score - Find Your Apartment for Rent, Condo, House or Home",2016-04-05,"Love It!","I use this app religiously.",Rejette,5,5.6
"Apartments & Rentals by Walk Score - Find Your Apartment for Rent, Condo, House or Home",2016-03-22,"Great product; awful app","Before I review the app, I think I should mention that Walkscore is brilliant and the most useful indicator available when looking for a home. In fact, I wish that all of the housing apps (realtor.com, Zillow, Trulia, etc.) would license Walkscore.  

But this app is unusable. The worst offender (and possibly easiest to fix) is the bug that affects the screen when you click on ""neighborhood.""  For about a second, it is formatted correctly, but then, the screen ""zooms"" in and you can no longer see all of the scores.  And it will not let you scroll or move the focus.  You just can't see any of the information available.  It doesn't matter if I am on my iPhone 6 or iPad. 

More broadly, this app just doesn't do the product justice. 

Also, Redfin has clearly licensed Walkscore, but you cannot sort or search by Walkscore.  An app that would allow a customer to search and sort the available housing by Walkscore would be my primary app.",Liarslyingliars,1,5.6
"Apartments & Rentals by Walk Score - Find Your Apartment for Rent, Condo, House or Home",2016-02-28,"Handy for Apartment hunting!","Just the kind of app that I was looking for during my apartment search!",Pras15,4,5.6
"Apartments & Rentals by Walk Score - Find Your Apartment for Rent, Condo, House or Home",2016-02-22,"Awesome app","Unique user friendly design","Eki happy",5,5.6
"Apartments & Rentals by Walk Score - Find Your Apartment for Rent, Condo, House or Home",2016-02-02,"Awesome App","This is a must download app for apartment hunting. I've used several apps like pad mapper, apartment list, and trulia. None of the apps that I named is as good as this one. I can guarantee that once you use this app, you'll never uninstall it. Big 👍🏼 to the app developers and Data team, I know how hard yal work to get this app perfect for us users...why do I know this...lol...that's because I used to work on the Data Team for Apartmentlist so I know...lol...Anyways, keep up the good work and I have an idea to help yal out. I think that if you all add this one feature to this app, which you all will be the first to do so...I can tell you that you guise will be saving more time and effort in getting the most updated information on each listing. Hope to hear from one of you soon. ✌🏼Amelia",MrsSegi,5,5.6
"Apartments & Rentals by Walk Score - Find Your Apartment for Rent, Condo, House or Home",2016-01-24,"Not Helpful","Not nearly as useful as the website. Don't bother with this in its current state.",Polyester333,1,5.6
"Apartments & Rentals by Walk Score - Find Your Apartment for Rent, Condo, House or Home",2016-01-22,Unreliable,"Lists don't work only maps so frustrating",Melisloan,1,5.6
"Apartments & Rentals by Walk Score - Find Your Apartment for Rent, Condo, House or Home",2015-11-17,"Wonderful app for community!","I just started using it and love it. I added Walk Scores to the bottom of my wife's real estate website and hope others enjoy my ratings of local stores. Nice community solution!",mtraininjax,5,5.6
"Apartments & Rentals by Walk Score - Find Your Apartment for Rent, Condo, House or Home",2015-10-25,"Poor user interface and not much apartment information","They have only walk score information. The UI is still like designed 3 years ago. Once you are in add photo screen, you can't get out without killing the app. Not useful for finding apartments. There are other apps that also provide commute information.",VPGM12,1,5.6
"Apartments & Rentals by Walk Score - Find Your Apartment for Rent, Condo, House or Home",2015-10-19,"Recommended for 20-somethings","Seriously great if you're looking to move to an urban area. So useful if you're young and don't have a car, makes finding housing where you want super easy. Make good use of the filters, you can require different features in apartments (like wood floors) in addition to proximity to different things.",Zosaysso,5,5.6
"Apartments & Rentals by Walk Score - Find Your Apartment for Rent, Condo, House or Home",2015-10-18,"Very helpful","We've been looking for a new home in DC - family of two with one car. Walk Score is very useful for gathering another layer of information - 'walkability' - about perspective neighborhoods.",Mdeezie72,5,5.6
"Apartments & Rentals by Walk Score - Find Your Apartment for Rent, Condo, House or Home",2015-10-07,"Opened  my eyes, removed my blinders","I use this app for areas I know but have not explored.

Great for vacations or finding something different in areas I know well. 

Helps get you out if a rut of going to the same place all the time. 

On iPhone 6s and LTE it loads very quickly.",OutOfTouch,5,5.6
"Apartments & Rentals by Walk Score - Find Your Apartment for Rent, Condo, House or Home",2015-09-18,"Happy house hunter","I'm house hunting and use this app daily to figure out walk scores, LOVE IT!!",Lorin1337,5,5.6
"Apartments & Rentals by Walk Score - Find Your Apartment for Rent, Condo, House or Home",2015-09-15,"Horrible app for ipad. Does not work.","Cannot search for an address and doesnt have any functionality that you have on the website. View is also messed up on ipad. Waste of time.",Atlwuchild,1,5.6
"Apartments & Rentals by Walk Score - Find Your Apartment for Rent, Condo, House or Home",2015-08-08,"Worst app ever","First of all, there is no crime grade in the app like on the website, or details of a specific location you want... Only general stats on the neighborhood which can be found on any search engine.  They make promises on the website (download the app for ______ content) and don't deliver.  Useless","Nails the snail",1,5.6
"Apartments & Rentals by Walk Score - Find Your Apartment for Rent, Condo, House or Home",2015-08-05,"Best App there is","Invaluable.  I use it almost daily. It's a wonderful app especially when looking for a house to buy, places to stay while on vacation, and recently we've been using the ""find a rental"" for our daughter. It would be great if the walk score app was added to real estate apps, vacation booking apps, etc.  that would be my only suggestion. Become a household word so other apps would add this to their service.
  Wonderful app.",Cobybeach,5,5.6
"Apartments & Rentals by Walk Score - Find Your Apartment for Rent, Condo, House or Home",2015-08-02,"Useless on iPad","Since there is no iPad version, downloaded this one. The filters cannot be viewed on the iPad, so it's mostly useless.",Cheeky321,1,5.6
"Apartments & Rentals by Walk Score - Find Your Apartment for Rent, Condo, House or Home",2015-07-25,"Informative and Fun","Informative app if you are considering traveling or moving to a new city. It shows you relevant information and how easily the locations are accessed via walking. Highly recommended.",unabashedly,5,5.6
"Apartments & Rentals by Walk Score - Find Your Apartment for Rent, Condo, House or Home",2015-07-23,"Good App","So far so good.",Caffiene_Baby,4,5.6
"Apartments & Rentals by Walk Score - Find Your Apartment for Rent, Condo, House or Home",2015-07-19,"Nice, but unreliable","Often takes ages to load data when other networked apps are working fine.  Today it said it could not obtain location when the settings did allow and other GPS apps were working.","Wes Groleau",4,5.6
"Apartments & Rentals by Walk Score - Find Your Apartment for Rent, Condo, House or Home",2015-06-01,"Buggy & inaccurate","There are many issues the recent versions have introduced that make this app near useless.

No way to update
No way to add businesses or services
User interface is far from intuitive 
Must delve a few layers in to reset prior to exploring other neighborhoods 

Yelp has a GREAT TEMPLATE to follow.  WalkScore management, please consider benchmarking Yelp!  

Your algorithm has MUCH potential when it's accessible as it had been in earlier versions.

The app in its current configuration is no where near user friendly and FAR from accurate...",TosaTrio,1,5.5.1
"Apartments & Rentals by Walk Score - Find Your Apartment for Rent, Condo, House or Home",2015-05-19,"Useful for apartment search","Helped me organize my apartment search",Bhaiyyu,5,5.5.1
"Apartments & Rentals by Walk Score - Find Your Apartment for Rent, Condo, House or Home",2015-05-09,"Very helpful","I find more apartments listed here then I do any other apps. It's difficult to find a place but this app helps me find exactly what I was for the price and neighborhood I want.",Missum101,5,5.5.1
"Apartments & Rentals by Walk Score - Find Your Apartment for Rent, Condo, House or Home",2015-05-03,Worthless,"Worst app ever.",SRod666,1,5.5.1
"Apartments & Rentals by Walk Score - Find Your Apartment for Rent, Condo, House or Home",2015-04-22,"As a blind renter this is great","I really like this app. Is completely accessible. My only wish is that it displayed in the actual number, instead of describing how walkable the location is.","Lisa cushman",4,5.5.1
"Apartments & Rentals by Walk Score - Find Your Apartment for Rent, Condo, House or Home",2015-04-19,Junk,"Useless from the app
Perfect from google search engine",Myamimoe,1,5.5.1
"Apartments & Rentals by Walk Score - Find Your Apartment for Rent, Condo, House or Home",2015-04-03,Useless,"All of the listings on here list multiple apartments, the ones with the lower rent amounts don't exist. This makes your app pretty useless.",Werde35fgyvdr,1,5.5.1
"Apartments & Rentals by Walk Score - Find Your Apartment for Rent, Condo, House or Home",2015-03-30,"I just need a walk score not apt rental","The website redirects me to load this useless app.  
Useless piece of junk",Tlidartth,1,5.5.1
"Apartments & Rentals by Walk Score - Find Your Apartment for Rent, Condo, House or Home",2015-03-27,"Good basic idea but inadequate","1. Need to filter for more factors: how many bathrooms, parking provided?, washer/dryer in unit?
2. Need to provide walkscores for places for sale as well as rentals",LuvMoovees,2,5.5.1
"Apartments & Rentals by Walk Score - Find Your Apartment for Rent, Condo, House or Home",2015-03-22,"Love it","This app is changing how people pick where to live!  After being on it for only a few hrs it would be great if there was a way to just click on a map and get the walk score instantly for that area.",willbgreene,5,5.5.1
"Apartments & Rentals by Walk Score - Find Your Apartment for Rent, Condo, House or Home",2015-03-22,Good,"Helpful for when you're newer to an area and need to know what's close to you",Minimegs12,3,5.5.1
"Apartments & Rentals by Walk Score - Find Your Apartment for Rent, Condo, House or Home",2015-02-20,"Useless Heat Map makes this app lackluster","On both the desktop site and this app, the developers have chosen to eliminate Walk Score's most useful feature -- the ability to survey a city by navigating the heat map, to get a quick overview of which neighborhoods are good for living without a car.  Now you can only see a static map of a neighborhood, zoomed out and difficult to interpret.  You also can't layer the heat map with other layers. Seriously, what is the point? Hotpads has a cleaner interface, and isn't as buggy.","Fructose Makes Me Sad",2,5.5.1
"Apartments & Rentals by Walk Score - Find Your Apartment for Rent, Condo, House or Home",2015-02-05,"Almost as good as the website","Walkability is super important to me.  So I live on this app.  Its great to use when choosing a new place to live or hotel for vacation.  I wish it showed the crime rate like website.",Fiffers,5,5.5
"Apartments & Rentals by Walk Score - Find Your Apartment for Rent, Condo, House or Home",2015-01-30,Confusing,"Difficult to figure out how to change the search location",Me23$$$,1,5.5
"Apartments & Rentals by Walk Score - Find Your Apartment for Rent, Condo, House or Home",2015-01-28,"What the heck?","Can't get full page view on iPad. Reset/cancel commands don't respond.
A waste of the time it took to download app!
I'll stick with website--which is mostly connected with larger rental property owners etc. but at least it's usable.",fredahick,1,5.5
"Apartments & Rentals by Walk Score - Find Your Apartment for Rent, Condo, House or Home",2015-01-25,"Great app!","Love it! It helps me find a place to rent and move!",fairymaru,5,5.5
"Apartments & Rentals by Walk Score - Find Your Apartment for Rent, Condo, House or Home",2015-01-25,"Buggy and lacks key features available in full website","This application has potential but is riddled with bugs and most links don't work - even those to ""pages"" within the application!

The key feature I'd expect to be available is the map showing restaurants, grocery stores, etc.; it is not!  Really?  This idea / application has so much potential... Which is the only reason I gave it two stars vs. one; this version is pathetic and was not ready for release.","Loyal Reader",2,5.5
"Apartments & Rentals by Walk Score - Find Your Apartment for Rent, Condo, House or Home",2015-01-15,"I like so far so good.","Seems easy to use.  I need a place. I'm homeless. :/","Sloth claw",4,5.5
"Apartments & Rentals by Walk Score - Find Your Apartment for Rent, Condo, House or Home",2015-01-13,"Severe Bugs","There is a giant black bar on the bottom of the screen on my iPhone 6 plus. Also, some parts of the interface are non responsive, like the buttons to Apply/Reset/Cancel when setting up a commute based apartment search. This essentially leaves the app unusable.",JustinCEO,1,5.5
"Apartments & Rentals by Walk Score - Find Your Apartment for Rent, Condo, House or Home",2015-01-11,"Stumbled into this one","Stumbled into this app while literally googling different store locations while trying to get an idea of where I was and proximity to the places I want to be and, like magic ---this app is everything I want in an app and more",Revellanotvanella,5,5.5
"Apartments & Rentals by Walk Score - Find Your Apartment for Rent, Condo, House or Home",2015-01-08,"Search near light rail, wow!","Love the commute search, only way to look for a new apartment for a dedicated transit rider. Thank you!",merheylie,5,5.5
"Apartments & Rentals by Walk Score - Find Your Apartment for Rent, Condo, House or Home",2015-01-06,"Best way to find a wonderful neighborhood (and apartment)!","I love this app! It helps me easily find rentals in areas within walking distance of shops, restaurants, and recreation--which is the most important aspect for me in a rental. I love how the intuitive interface makes searching simple and clicking through to properties. The only thing I wish it had was a way to save a search and notification feature for newly listed properties matching that search!",emeraldAllie,5,5.5
"Apartments & Rentals by Walk Score - Find Your Apartment for Rent, Condo, House or Home",2014-12-26,Love!,"This is exactly what I needed. Thank you!",paulamcll,5,5.4
"Apartments & Rentals by Walk Score - Find Your Apartment for Rent, Condo, House or Home",2014-12-19,"Love it!","What a great tool for looking for housing within a reasonable travel time from work for each mode of travel. One glitch with the travel time boundary not locking on the workplace address.",Park9,4,5.4
"Apartments & Rentals by Walk Score - Find Your Apartment for Rent, Condo, House or Home",2014-12-14,"Great App","Fast, easy, and narrows the search beautifully",Pantly,5,5.4
"Apartments & Rentals by Walk Score - Find Your Apartment for Rent, Condo, House or Home",2014-12-11,"Essential app for finding an apartment","Super useful app with tons of apartment listings. I love that you can filter by commute location!","Unique geek",5,5.4
"Apartments & Rentals by Walk Score - Find Your Apartment for Rent, Condo, House or Home",2014-12-09,"Super Rad!","When I was out looking for apartments, I downloaded a lot of rental apps. I used this one the most often. I love the easy layout and the detailed options.",Lizzzzzxxxxxxxxxxxxxxxi,5,5.3
"Apartments & Rentals by Walk Score - Find Your Apartment for Rent, Condo, House or Home",2014-11-30,"More please","I don't like that the app is so limited. Why can't I see the neighborhood safety ratings and the public transport options?",Ples11,3,5.3
"Apartments & Rentals by Walk Score - Find Your Apartment for Rent, Condo, House or Home",2014-11-29,Great,"Easiest way to get a truly comprehensive list of local rentals currently available. Love it.",ChefNigel,5,5.3
"Apartments & Rentals by Walk Score - Find Your Apartment for Rent, Condo, House or Home",2014-10-31,"Get app! Could have more filters","Could have more listings, but still helpful.",lauren3richardson,4,5.3
"Apartments & Rentals by Walk Score - Find Your Apartment for Rent, Condo, House or Home",2014-10-27,"A great step was downloading Walk Score!!!","Love this app not only is it easy to use but the information is dead on!!!

I wasn't expecting much from it being free but got way more than I ever hoped.",Pipponino,5,5.3
"Apartments & Rentals by Walk Score - Find Your Apartment for Rent, Condo, House or Home",2014-10-27,"Who gives a rip about ""apartments""?","This app would be way more useful if it easily allowed simply using a regular street address. Not a bunch of randomly accessed ""apartments""!","PDX Reader",2,5.3
"Apartments & Rentals by Walk Score - Find Your Apartment for Rent, Condo, House or Home",2014-10-21,"Im loving it.","This apps really helpful. I used it every day and was awesome and fun to use. I would recomend it to my friends, fams , and people i know.. Thanks again to whoever create this.. Genius",Acnti,4,5.3
"Apartments & Rentals by Walk Score - Find Your Apartment for Rent, Condo, House or Home",2014-10-21,"Great information for evaluating a neighborhood","Wish I'd looked up the walkscore of my previous house before purchasing it.",Nmilleruw,5,5.3
"Apartments & Rentals by Walk Score - Find Your Apartment for Rent, Condo, House or Home",2014-10-13,"Thanks a lot",":)) thanks to this app I live where I live it helped out a lot!!!",24enrique12,5,5.3
"Apartments & Rentals by Walk Score - Find Your Apartment for Rent, Condo, House or Home",2014-10-12,"Helpful with lots information","I used it heavily these days to find appartment in Santa Barbara these few days，it is a great App.",coysting12,4,5.3
"Apartments & Rentals by Walk Score - Find Your Apartment for Rent, Condo, House or Home",2014-10-11,"Great way to evaluate apartments","Living in Saint Louis, it was not guaranteed that all of my necessities would be within walking distance, but that was necessary for me. This app makes it so easy to see what apartments are near the things I need, and it is a fun way to compare neighborhoods.",Mitchname,5,5.3
"Apartments & Rentals by Walk Score - Find Your Apartment for Rent, Condo, House or Home",2014-10-08,Unless,"This app was of little to none use. I reside in Atlanta and it only have me a few choices",Moneymaker2013,1,5.3
"Apartments & Rentals by Walk Score - Find Your Apartment for Rent, Condo, House or Home",2014-10-03,"Slow, keeps hanging","It's unusable","Mr Neek",2,5.3
"Apartments & Rentals by Walk Score - Find Your Apartment for Rent, Condo, House or Home",2014-10-03,"Good info up to date info","So far it's been helpful showing newly posted rentals. Reliable sources.",viennahk,4,5.3
"Apartments & Rentals by Walk Score - Find Your Apartment for Rent, Condo, House or Home",2014-09-30,"Great app!","Great app. Hope they can add more apartments sources for more renting options....","Mauricio PR",4,5.3
"Apartments & Rentals by Walk Score - Find Your Apartment for Rent, Condo, House or Home",2014-09-28,Grande,"Love it","Emperor Zizou",4,5.3
"Apartments & Rentals by Walk Score - Find Your Apartment for Rent, Condo, House or Home",2014-09-24,"Awesome apartment search","The apartment search in this app rocks.  Plus, you can get your Walk Score on the go.  I'd never live somewhere without checking Walk Score!",joshstev,5,5.3
"Apartments & Rentals by Walk Score - Find Your Apartment for Rent, Condo, House or Home",2014-09-12,"Would like to see heat map","Only gives scores based on a single point of reference but it would be much more useful to multiple neighborhoods by color","Ran Outta Paint",3,5.2
"Apartments & Rentals by Walk Score - Find Your Apartment for Rent, Condo, House or Home",2014-09-11,Awesome,"Blows away the competition!

Feature wanted:   Set commute time but search multiple modalities.","Moving to DC",5,5.2
"Apartments & Rentals by Walk Score - Find Your Apartment for Rent, Condo, House or Home",2014-09-10,Yes,"Everything about this app is gold",therealbradpiff,5,5.2
"Apartments & Rentals by Walk Score - Find Your Apartment for Rent, Condo, House or Home",2014-09-02,"Helped me find an apartment","The commute-based search and other filters on the rentals map are super useful, things that no other app has.
Walk, bike, and transit scores are great for at a glance insight, and the what's nearby map gives you a deeper look at a neighborhood.","Edward E Y",5,5.2
"Apartments & Rentals by Walk Score - Find Your Apartment for Rent, Condo, House or Home",2014-08-24,Yo!,"Cool app but some places want money, bad! Get them off!","A. Green1",4,5.1
"Apartments & Rentals by Walk Score - Find Your Apartment for Rent, Condo, House or Home",2014-08-16,"Nice App!","I just moved into a new neighborhood, and I've found this app indispensable.",Kingsesar,5,5.1
"Apartments & Rentals by Walk Score - Find Your Apartment for Rent, Condo, House or Home",2014-08-14,Great!,"Just what a non-driving city person needs. Easy to use. Fast. Found done places the other apps didn't, but best of all is the walk-ability scoring.","Anna Conti",5,5.1
"Apartments & Rentals by Walk Score - Find Your Apartment for Rent, Condo, House or Home",2014-08-14,"Waste of time","All the listings on this app are outdated and besides they make you pay $49 to contact the property managers!","Eli R 44",1,5.1
