\select@language {english}
\contentsline {section}{\numberline {1}Finishing Quantum Scattering - Born Approximation}{1}{section.1}
\contentsline {section}{\numberline {2}Yukawa Potential}{2}{section.2}
