\relax 
\@writefile{toc}{\contentsline {section}{\numberline {1}Objectives}{1}}
\@writefile{toc}{\contentsline {section}{\numberline {2}Background \& Theory}{1}}
\newlabel{background}{{2}{1}}
\@writefile{toc}{\contentsline {subsection}{\numberline {2.1}Crystal Structures}{1}}
\@writefile{toc}{\contentsline {subsection}{\numberline {2.2}X-ray Diffraction}{1}}
\newlabel{br_law}{{1}{1}}
\@writefile{lof}{\contentsline {figure}{\numberline {1}{\ignorespaces The three primary cubic lattice types. From left to right, SC has 1 lattice point per unit cell, BCC has 2 lattice points, and FCC has 4 lattice points per unit cell.}}{2}}
\newlabel{cubic}{{1}{2}}
\newlabel{br_law_planes}{{2}{2}}
\newlabel{d_def}{{3}{2}}
\@writefile{toc}{\contentsline {section}{\numberline {3}Experimental Procedures}{2}}
\@writefile{lof}{\contentsline {figure}{\numberline {2}{\ignorespaces An illustration of different crystal planes for the simple cubic lattice structure. }}{3}}
\newlabel{planes}{{2}{3}}
\@writefile{toc}{\contentsline {section}{\numberline {4}Data Analysis}{3}}
\@writefile{toc}{\contentsline {section}{\numberline {5}Results and Conclusions}{3}}
\bibstyle{unsrt}
\bibdata{sample}
\@writefile{lof}{\contentsline {figure}{\numberline {3}{\ignorespaces A figure pulled from Google Images. This displays the order of the peaks and how they correspond to different crystal planes. For BCC and FCC structures, the available crystal planes are different; some of these planes are eliminated as diffraction candidates.}}{4}}
\newlabel{ordered_peaks}{{3}{4}}
\@writefile{lof}{\contentsline {figure}{\numberline {4}{\ignorespaces Incoming x-rays can be assumed to be collinear. They diffract differently with differing crystal planes, yielding different angles $\theta $ that yield intensity maxima for the interference pattern.}}{5}}
\newlabel{powder}{{4}{5}}
\@writefile{lof}{\contentsline {figure}{\numberline {5}{\ignorespaces X-ray spectrum of a Si powder. }}{5}}
\newlabel{Si_powder}{{5}{5}}
\@writefile{lof}{\contentsline {figure}{\numberline {6}{\ignorespaces X-ray spectrum of a KCl powder. }}{6}}
\newlabel{KCl_powder}{{6}{6}}
\@writefile{lof}{\contentsline {figure}{\numberline {7}{\ignorespaces X-ray spectrum of an unknown compound powder. }}{6}}
\newlabel{unknown_powder}{{7}{6}}
\@writefile{lof}{\contentsline {figure}{\numberline {8}{\ignorespaces X-ray spectrum of an unknown elemental powder. }}{7}}
\newlabel{element_powder}{{8}{7}}
\newlabel{Peaks_Table}{{4}{7}}
\@writefile{lot}{\contentsline {table}{\numberline {1}{\ignorespaces Powder Diffraction Spectra}}{7}}
