\relax 
\providecommand\hyper@newdestlabel[2]{}
\providecommand\HyperFirstAtBeginDocument{\AtBeginDocument}
\HyperFirstAtBeginDocument{\ifx\hyper@anchor\@undefined
\global\let\oldcontentsline\contentsline
\gdef\contentsline#1#2#3#4{\oldcontentsline{#1}{#2}{#3}}
\global\let\oldnewlabel\newlabel
\gdef\newlabel#1#2{\newlabelxx{#1}#2}
\gdef\newlabelxx#1#2#3#4#5#6{\oldnewlabel{#1}{{#2}{#3}}}
\AtEndDocument{\ifx\hyper@anchor\@undefined
\let\contentsline\oldcontentsline
\let\newlabel\oldnewlabel
\fi}
\fi}
\global\let\hyper@last\relax 
\gdef\HyperFirstAtBeginDocument#1{#1}
\providecommand\HyField@AuxAddToFields[1]{}
\providecommand\HyField@AuxAddToCoFields[2]{}
\select@language{english}
\@writefile{toc}{\select@language{english}}
\@writefile{lof}{\select@language{english}}
\@writefile{lot}{\select@language{english}}
\@writefile{thm}{\contentsline {exercise}{{Exercise}{1.{1}}{Two-Dimensional Oscillator}}{1}{exercise.1.1}}
\newlabel{eq:comm}{{1}{1}{}{equation.1.1}{}}
\newlabel{eq:comm@cref}{{[equation][1][]1}{1}}
\@writefile{thm}{\contentsline {solution}{{Solution}{1}{}}{1}{solution.1}}
\global\def\markisolutionii{\ensuremath {\blacksquare }}
\@writefile{thm}{\contentsline {solution}{{Solution}{2}{}}{1}{solution.2}}
\@writefile{thm}{\contentsline {solution}{{Solution}{3}{}}{2}{solution.3}}
\@writefile{thm}{\contentsline {exercise}{{Exercise}{1.{2}}{Landau Levels}}{2}{exercise.1.2}}
\@writefile{thm}{\contentsline {solution}{{Solution}{4}{}}{2}{solution.4}}
\@writefile{thm}{\contentsline {exercise}{{Exercise}{1.{3}}{Nonlinear Harmonic Oscillator}}{2}{exercise.1.3}}
\@writefile{thm}{\contentsline {solution}{{Solution}{5}{}}{3}{solution.5}}
\global\def\markvsolutionvi{\ensuremath {\blacksquare }}
\@writefile{thm}{\contentsline {exercise}{{Exercise}{1.{4}}{Shift of creation and annihilation operators}}{3}{exercise.1.4}}
\@writefile{thm}{\contentsline {solution}{{Solution}{6}{}}{4}{solution.6}}
\@writefile{thm}{\contentsline {exercise}{{Exercise}{1.{5}}{More Bogolyubov Transformations}}{5}{exercise.1.5}}
\@writefile{thm}{\contentsline {exercise}{{Exercise}{1.{6}}{Nonlinear Bogolyubov Transformation}}{5}{exercise.1.6}}
\@writefile{thm}{\contentsline {solution}{{Solution}{7}{}}{5}{solution.7}}
