\select@language {english}
\contentsline {section}{\numberline {1}Mean-squared Error}{1}{section.1}
\contentsline {subsection}{\numberline {1.1}Random Intervals}{2}{subsection.1.1}
\contentsline {subsection}{\numberline {1.2}Another Method: Large-Sample Confidence Intervals}{4}{subsection.1.2}
