Spectrum Name:
Description:
Student ID:
Detector Used:
Comments:
Acquisition Mode:,PHA Pre-Amp
High Voltage:,700
Conversion Gain:,1024
Coarse Gain:,6
Fine Gain:,255
Upper Discriminator:,181
Lower Discriminator:,2
Calibration Coefficients:,1.8637992507253793E-5,0.15439613469750946,-0.4597755705255281
Calibration Channels:,729,143,538
Calibration Energies:,122.0,22.0,88.0
Elapsed Real Time:,359.71
Elapsed Live Time:,307.89
Start Time:,October 20, 2017, 09:34:06
End Time:,October 20, 2017, 09:40:06
ROIs:
ROI:,Low,High,Gross,Net,FWHM,Centroid

1,660,802,431,430,8,121
2,489,598,18626,12850,52,87
3,78,204,237076,231106,42,22

Channel Data:
Channel,Energy,Counts
0,-0.4597755705255281,0
1,-0.3053607978355114,0
2,-0.15090874916048014,0
3,0.003580575499565586,0
4,0.15810717614462577,0
5,0.31267105277470053,0
6,0.46727220538978975,0
7,0.6219106339898938,0
8,0.7765863385750119,0
9,0.9312993191451445,0
10,1.086049575700292,0
11,1.240837108240454,0
12,1.3956619167656301,53
13,1.5505240012758206,1788
14,1.7054233617710262,6586
15,1.860359998251246,7725
16,2.01533391071648,5728
17,2.170345099166729,7482
18,2.3253935636019922,10533
19,2.4804793040222703,14551
20,2.6356023204275623,19426
21,2.7907626128178693,24831
22,2.945960181193191,36694
23,3.1011950255535266,77536
24,3.2564671458988768,104096
25,3.4117765422292416,91317
26,3.5671232145446212,77625
27,3.7225071628450146,65672
28,3.877928387130424,56357
29,4.033386887400847,47258
30,4.188882663656285,38311
31,4.344415715896736,30304
32,4.499986044122203,23278
33,4.655593648332683,17288
34,4.811238528528179,12464
35,4.966920684708689,8370
36,5.122640116874213,5560
37,5.278396825024753,3729
38,5.434190809160306,2452
39,5.590022069280875,1542
40,5.745890605386457,939
41,5.901796417477054,552
42,6.057739505552665,381
43,6.213719869613291,247
44,6.369737509658933,148
45,6.525792425689587,119
46,6.681884617705257,82
47,6.83801408570594,65
48,6.994180829691639,51
49,7.150384849662352,30
50,7.306626145618079,42
51,7.462904717558821,42
52,7.619220565484579,23
53,7.775573689395349,34
54,7.931964089291135,32
55,8.088391765171934,33
56,8.24485671703775,26
57,8.401358944888578,21
58,8.557898448724423,23
59,8.71447522854528,21
60,8.871089284351154,31
61,9.02774061614204,28
62,9.184429223917942,23
63,9.341155107678858,27
64,9.497918267424788,28
65,9.654718703155735,32
66,9.811556414871694,38
67,9.96843140257267,24
68,10.125343666258656,29
69,10.28229320592966,36
70,10.439280021585677,41
71,10.59630411322671,43
72,10.753365480852755,40
73,10.910464124463818,36
74,11.067600044059894,44
75,11.224773239640983,41
76,11.38198371120709,44
77,11.539231458758207,60
78,11.696516482294342,49
79,11.85383878181549,64
80,12.011198357321653,64
81,12.168595208812832,76
82,12.326029336289022,93
83,12.483500739750228,86
84,12.641009419196449,96
85,12.798555374627686,92
86,12.956138606043934,97
87,13.1137591134452,124
88,13.271416896831479,119
89,13.429111956202771,154
90,13.58684429155908,157
91,13.7446139029004,146
92,13.902420790226738,179
93,14.06026495353809,204
94,14.218146392834456,196
95,14.376065108115835,225
96,14.534021099382231,232
97,14.692014366633641,253
98,14.850044909870064,295
99,15.008112729091504,341
100,15.166217824297956,395
101,15.324360195489424,369
102,15.482539842665904,400
103,15.640756765827403,467
104,15.799010964973911,520
105,15.957302440105439,555
106,16.115631191221976,605
107,16.273997218323533,663
108,16.4324005214101,726
109,16.590841100481683,786
110,16.749318955538282,883
111,16.907834086579896,981
112,17.066386493606522,992
113,17.224976176618163,1154
114,17.38360313561482,1246
115,17.54226737059649,1367
116,17.700968881563178,1462
117,17.859707668514872,1629
118,18.01848373145159,1819
119,18.177297070373317,1913
120,18.33614768528006,2043
121,18.49503557617182,2194
122,18.65396074304859,2502
123,18.812923185910375,2576
124,18.97192290475718,2813
125,19.130959899588994,2935
126,19.29003417040582,3195
127,19.449145717207667,3286
128,19.608294539994528,3553
129,19.7674806387664,3740
130,19.926704013523292,3930
131,20.08596466426519,4159
132,20.24526259099211,4243
133,20.404597793704042,4471
134,20.563970272400987,4603
135,20.723380027082946,4865
136,20.88282705774992,5010
137,21.04231136440191,5092
138,21.201832947038916,5070
139,21.361391805660936,5290
140,21.52098794026797,5286
141,21.680621350860015,5297
142,21.84029203743708,5356
143,21.999999999999158,5319
144,22.159745238546247,5322
145,22.31952775307835,5355
146,22.479347543595473,5237
147,22.639204610097607,5285
148,22.79909895258476,5133
149,22.95903057105692,5072
150,23.118999465514097,4911
151,23.279005635956292,4713
152,23.4390490823835,4664
153,23.599129804795723,4484
154,23.759247803192956,4490
155,23.919403077575208,4207
156,24.079595627942474,4014
157,24.239825454294756,3809
158,24.400092556632046,3766
159,24.56039693495436,3459
160,24.720738589261682,3389
161,24.88111751955402,3261
162,25.04153372583137,2984
163,25.201987208093737,2748
164,25.362477966341118,2735
165,25.523006000573517,2448
166,25.683571310790928,2337
167,25.84417389699335,2181
168,26.004813759180788,1982
169,26.165490897353244,1850
170,26.326205311510712,1692
171,26.4869570016532,1623
172,26.647745967780693,1478
173,26.808572209893203,1372
174,26.96943572799073,1254
175,27.130336522073275,1105
176,27.29127459214083,1056
177,27.452249938193397,955
178,27.613262560230982,858
179,27.774312458253583,764
180,27.9353996322612,681
181,28.096524082253822,621
182,28.257685808231464,550
183,28.418884810194122,533
184,28.580121088141794,456
185,28.741394642074482,403
186,28.90270547199218,359
187,29.064053577894896,312
188,29.225438959782625,279
189,29.38686161765537,242
190,29.548321551513126,200
191,29.7098187613559,173
192,29.87135324718369,166
193,30.032925008996493,149
194,30.19453404679431,151
195,30.356180360577138,118
196,30.517863950344985,83
197,30.679584816097847,90
198,30.84134295783572,69
199,31.00313837555861,83
200,31.164971069266514,69
201,31.326841038959433,68
202,31.488748284637364,48
203,31.650692806300313,44
204,31.812674603948274,34
205,31.97469367758125,36
206,32.13675002719924,29
207,32.29884365280225,22
208,32.46097455439026,24
209,32.623142731963306,27
210,32.78534818552135,21
211,32.94759091506441,21
212,33.10987092059249,14
213,33.27218820210558,19
214,33.434542759603694,15
215,33.59693459308681,9
216,33.75936370255494,13
217,33.9218300880081,14
218,34.08433374944626,6
219,34.24687468686945,16
220,34.409452900277635,16
221,34.57206838967084,11
222,34.734721155049066,12
223,34.8974111964123,9
224,35.060138513760556,10
225,35.22290310709382,11
226,35.3857049764121,14
227,35.5485441217154,12
228,35.711420543003705,20
229,35.87433424027703,8
230,36.03728521353537,4
231,36.200273462778725,11
232,36.363298988007095,12
233,36.52636178922047,11
234,36.68946186641887,11
235,36.85259921960228,5
236,37.015773848770706,8
237,37.17898575392415,15
238,37.342234935062606,10
239,37.505521392186076,8
240,37.66884512529456,16
241,37.83220613438806,13
242,37.995604419466574,12
243,38.159039980530096,11
244,38.32251281757864,21
245,38.4860229306122,7
246,38.64957031963077,8
247,38.81315498463435,8
248,38.97677692562296,10
249,39.14043614259656,10
250,39.3041326355552,13
251,39.46786640449884,8
252,39.631637449427494,16
253,39.795445770341175,11
254,39.95929136723986,13
255,40.12317424012356,11
256,40.28709438899227,12
257,40.45105181384601,5
258,40.61504651468476,16
259,40.77907849150851,6
260,40.94314774431729,2
261,41.107254273111074,7
262,41.27139807788988,12
263,41.435579158653695,15
264,41.59979751540253,10
265,41.76405314813638,10
266,41.92834605685523,17
267,42.09267624155911,9
268,42.257043702248005,10
269,42.42144843892191,17
270,42.58589045158082,10
271,42.75036974022476,7
272,42.9148863048537,11
273,43.07944014546767,8
274,43.24403126206665,13
275,43.408659654650634,10
276,43.57332532321965,17
277,43.738028267773664,8
278,43.9027684883127,10
279,44.06754598483675,11
280,44.232360757345816,12
281,44.3972128058399,8
282,44.56210213031898,10
283,44.7270287307831,9
284,44.89199260723222,13
285,45.056993759666355,13
286,45.22203218808551,12
287,45.387107892489674,10
288,45.55222087287885,12
289,45.717371129253046,11
290,45.88255866161226,11
291,46.047783469956485,11
292,46.21304555428572,11
293,46.37834491459997,17
294,46.543681550899244,13
295,46.70905546318352,12
296,46.87446665145282,19
297,47.03991511570713,15
298,47.20540085594645,11
299,47.3709238721708,12
300,47.53648416438015,17
301,47.70208173257452,18
302,47.8677165767539,19
303,48.033388696918294,12
304,48.19909809306771,19
305,48.364844765202136,16
306,48.53062871332158,11
307,48.69644993742604,9
308,48.8623084375155,12
309,49.028204213589994,7
310,49.19413726564949,16
311,49.360107593694,14
312,49.526115197723534,14
313,49.69216007773807,8
314,49.858242233737634,16
315,50.0243616657222,14
316,50.19051837369179,25
317,50.356712357646394,25
318,50.52294361758601,18
319,50.689212153510645,18
320,50.85551796542028,16
321,51.02186105331494,22
322,51.18824141719462,17
323,51.35465905705931,20
324,51.52111397290901,19
325,51.68760616474373,17
326,51.854135632563455,12
327,52.020702376368206,19
328,52.187306396157965,15
329,52.353947691932746,25
330,52.52062626369253,20
331,52.68734211143733,25
332,52.85409523516716,17
333,53.020885634881985,21
334,53.18771331058183,20
335,53.3545782622667,20
336,53.52148048993657,24
337,53.68841999359147,24
338,53.85539677323137,33
339,54.02241082885629,31
340,54.18946216046623,29
341,54.356550768061176,29
342,54.52367665164114,21
343,54.69083981120612,28
344,54.858040246756104,30
345,55.02527795829112,29
346,55.19255294581114,25
347,55.359865209316176,38
348,55.52721474880622,36
349,55.694601564281285,30
350,55.86202565574137,36
351,56.02948702318646,40
352,56.19698566661658,21
353,56.3645215860317,24
354,56.53209478143183,28
355,56.69970525281699,35
356,56.86735300018715,34
357,57.035038023542334,41
358,57.20276032288253,35
359,57.37051989820774,24
360,57.53831674951797,31
361,57.706150876813204,25
362,57.874022280093456,29
363,58.04193095935873,34
364,58.20987691460901,37
365,58.37786014584431,29
366,58.54588065306462,37
367,58.71393843626994,42
368,58.88203349546029,34
369,59.05016583063564,30
370,59.218335441796015,35
371,59.386542328941395,28
372,59.5547864920718,30
373,59.72306793118721,31
374,59.891386646287636,31
375,60.05974263737308,41
376,60.22813590444354,30
377,60.396566447499005,36
378,60.5650342665395,41
379,60.73353936156499,36
380,60.90208173257551,21
381,61.07066137957104,38
382,61.23927830255158,22
383,61.407932501517145,29
384,61.576623976467715,33
385,61.7453527274033,29
386,61.91411875432391,34
387,62.082922057229524,32
388,62.251762636120155,30
389,62.4206404909958,31
390,62.589555621856455,29
391,62.75850802870214,42
392,62.92749771153282,32
393,63.09652467034853,37
394,63.26558890514925,32
395,63.43469041593497,33
396,63.60382920270573,29
397,63.773005265461485,43
398,63.94221860420226,33
399,64.11146921892806,27
400,64.28075710963887,44
401,64.45008227633468,43
402,64.61944471901552,30
403,64.78884443768136,35
404,64.95828143233223,44
405,65.12775570296812,43
406,65.29726724958901,37
407,65.46681607219492,34
408,65.63640217078583,39
409,65.80602554536176,39
410,65.97568619592272,45
411,66.14538412246868,43
412,66.31511932499966,33
413,66.48489180351565,33
414,66.65470155801667,38
415,66.82454858850268,30
416,66.99443289497373,42
417,67.16435447742977,39
418,67.33431333587085,58
419,67.50430947029693,40
420,67.67434288070802,45
421,67.84441356710413,37
422,68.01452152948525,52
423,68.1846667678514,39
424,68.35484928220255,38
425,68.52506907253871,51
426,68.6953261388599,49
427,68.86562048116609,42
428,69.0359520994573,39
429,69.20632099373353,54
430,69.37672716399477,51
431,69.54717061024103,44
432,69.71765133247229,49
433,69.88816933068858,56
434,70.05872460488987,51
435,70.22931715507619,51
436,70.39994698124751,44
437,70.57061408340385,50
438,70.74131846154522,50
439,70.9120601156716,59
440,71.08283904578298,44
441,71.25365525187937,59
442,71.42450873396078,46
443,71.59539949202723,45
444,71.76632752607867,60
445,71.93729283611512,44
446,72.10829542213659,52
447,72.27933528414307,55
448,72.45041242213459,50
449,72.6215268361111,38
450,72.79267852607263,55
451,72.96386749201918,37
452,73.13509373395073,41
453,73.3063572518673,57
454,73.4776580457689,68
455,73.64899611565549,47
456,73.82037146152712,44
457,73.99178408338375,59
458,74.16323398122539,44
459,74.33472115505207,50
460,74.50624560486374,49
461,74.67780733066041,63
462,74.84940633244213,66
463,75.02104261020884,50
464,75.19271616396058,58
465,75.36442699369732,53
466,75.53617509941908,60
467,75.70796048112587,56
468,75.87978313881766,38
469,76.05164307249447,44
470,76.22354028215629,66
471,76.39547476780312,50
472,76.56744652943497,64
473,76.73945556705183,52
474,76.91150188065372,56
475,77.0835854702406,64
476,77.25570633581252,63
477,77.42786447736944,60
478,77.60005989491137,64
479,77.77229258843833,69
480,77.94456255795029,59
481,78.11686980344727,78
482,78.28921432492926,77
483,78.46159612239627,75
484,78.6340151958483,78
485,78.80647154528535,85
486,78.9789651707074,68
487,79.15149607211445,79
488,79.32406424950653,85
489,79.49666970288365,74
490,79.66931243224575,85
491,79.84199243759288,97
492,80.01470971892502,95
493,80.18746427624217,97
494,80.36025610954432,113
495,80.53308521883153,114
496,80.70595160410372,120
497,80.87885526536093,108
498,81.05179620260316,105
499,81.2247744158304,106
500,81.39778990504266,132
501,81.57084267023993,135
502,81.7439327114222,121
503,81.9170600285895,153
504,82.09022462174181,148
505,82.26342649087916,128
506,82.43666563600149,149
507,82.60994205710885,165
508,82.78325575420122,172
509,82.95660672727861,164
510,83.12999497634102,161
511,83.30342050138843,184
512,83.47688330242086,199
513,83.6503833794383,174
514,83.82392073244075,205
515,83.99749536142824,200
516,84.17110726640072,192
517,84.34475644735822,237
518,84.51844290430074,196
519,84.69216663722827,259
520,84.86592764614083,237
521,85.03972593103839,239
522,85.21356149192096,232
523,85.38743432878854,246
524,85.56134444164114,247
525,85.73529183047877,256
526,85.90927649530141,256
527,86.08329843610905,261
528,86.2573576529017,252
529,86.43145414567938,249
530,86.60558791444208,292
531,86.77975895918979,283
532,86.95396727992251,280
533,87.12821287664023,260
534,87.30249574934298,258
535,87.47681589803075,290
536,87.65117332270354,309
537,87.82556802336133,283
538,88.00000000000414,296
539,88.17446925263195,281
540,88.34897578124479,294
541,88.52351958584265,277
542,88.6981006664255,299
543,88.87271902299338,267
544,89.04737465554628,255
545,89.22206756408418,292
546,89.39679774860711,250
547,89.57156520911505,250
548,89.74636994560801,268
549,89.92121195808596,266
550,90.09609124654895,258
551,90.27100781099695,206
552,90.44596165142995,212
553,90.62095276784798,221
554,90.79598116025102,223
555,90.97104682863907,236
556,91.14614977301216,227
557,91.32128999337023,205
558,91.49646748971332,200
559,91.67168226204143,228
560,91.84693431035456,191
561,92.0222236346527,171
562,92.19755023493586,195
563,92.37291411120403,195
564,92.54831526345721,191
565,92.7237536916954,155
566,92.89922939591864,183
567,93.07474237612686,139
568,93.2502926323201,173
569,93.42588016449835,141
570,93.60150497266162,136
571,93.77716705680992,115
572,93.95286641694321,129
573,94.12860305306152,129
574,94.30437696516485,127
575,94.4801881532532,116
576,94.65603661732655,108
577,94.83192235738494,110
578,95.00784537342832,102
579,95.18380566545672,75
580,95.35980323347013,80
581,95.53583807746857,71
582,95.71191019745203,60
583,95.88801959342048,87
584,96.06416626537396,57
585,96.24035021331244,70
586,96.41657143723593,38
587,96.59282993714447,50
588,96.769125713038,48
589,96.94545876491654,44
590,97.1218290927801,42
591,97.29823669662868,46
592,97.47468157646227,42
593,97.65116373228088,40
594,97.82768316408449,31
595,98.00423987187312,24
596,98.18083385564677,35
597,98.35746511540545,30
598,98.53413365114912,21
599,98.71083946287781,24
600,98.88758255059152,30
601,99.06436291429023,21
602,99.24118055397398,14
603,99.41803546964273,17
604,99.5949276612965,15
605,99.77185712893527,25
606,99.94882387255906,17
607,100.12582789216788,9
608,100.3028691877617,10
609,100.47994775934053,7
610,100.65706360690439,7
611,100.83421673045325,11
612,101.01140712998713,7
613,101.18863480550603,7
614,101.36589975700994,10
615,101.54320198449886,6
616,101.7205414879728,6
617,101.89791826743176,3
618,102.07533232287572,8
619,102.25278365430471,4
620,102.4302722617187,7
621,102.60779814511771,4
622,102.78536130450173,3
623,102.96296173987078,3
624,103.14059945122483,8
625,103.3182744385639,2
626,103.49598670188799,2
627,103.67373624119708,8
628,103.8515230564912,3
629,104.02934714777032,4
630,104.20720851503447,4
631,104.38510715828362,4
632,104.56304307751779,1
633,104.74101627273699,3
634,104.91902674394117,3
635,105.0970744911304,1
636,105.27515951430462,4
637,105.45328181346386,3
638,105.63144138860812,4
639,105.8096382397374,1
640,105.98787236685169,1
641,106.16614376995098,3
642,106.3444524490353,2
643,106.52279840410463,4
644,106.70118163515897,0
645,106.87960214219834,4
646,107.05805992522271,2
647,107.2365549842321,5
648,107.41508731922652,3
649,107.59365693020592,4
650,107.77226381717036,3
651,107.9509079801198,4
652,108.12958941905426,4
653,108.30830813397374,8
654,108.48706412487823,3
655,108.66585739176773,4
656,108.84468793464225,2
657,109.02355575350178,2
658,109.20246084834633,2
659,109.3814032191759,1
660,109.56038286599048,2
661,109.73939978879007,2
662,109.91845398757467,4
663,110.09754546234429,1
664,110.27667421309893,2
665,110.45584023983858,6
666,110.63504354256324,3
667,110.81428412127292,5
668,110.99356197596761,0
669,111.17287710664732,3
670,111.35222951331204,1
671,111.53161919596178,2
672,111.71104615459653,2
673,111.89051038921629,5
674,112.07001189982108,3
675,112.24955068641087,5
676,112.42912674898568,4
677,112.6087400875455,2
678,112.78839070209034,3
679,112.9680785926202,3
680,113.14780375913506,2
681,113.32756620163494,4
682,113.50736592011984,5
683,113.68720291458975,3
684,113.86707718504468,5
685,114.04698873148462,5
686,114.22693755390958,2
687,114.40692365231953,5
688,114.58694702671451,1
689,114.76700767709453,8
690,114.94710560345953,3
691,115.12724080580956,5
692,115.3074132841446,4
693,115.48762303846465,4
694,115.66787006876973,3
695,115.84815437505982,7
696,116.02847595733492,1
697,116.20883481559503,3
698,116.38923094984015,3
699,116.5696643600703,7
700,116.75013504628546,1
701,116.93064300848563,3
702,117.11118824667082,4
703,117.29177076084102,2
704,117.47239055099624,5
705,117.65304761713647,2
706,117.83374195926172,1
707,118.01447357737196,4
708,118.19524247146724,2
709,118.37604864154753,2
710,118.55689208761284,5
711,118.73777280966314,1
712,118.91869080769848,4
713,119.09964608171882,3
714,119.28063863172417,2
715,119.46166845771457,2
716,119.64273555968995,3
717,119.82383993765035,3
718,120.00498159159577,1
719,120.1861605215262,1
720,120.36737672744167,3
721,120.54863020934212,2
722,120.7299209672276,4
723,120.91124900109808,3
724,121.09261431095358,5
725,121.27401689679411,4
726,121.45545675861965,4
727,121.6369338964302,3
728,121.81844831022576,2
729,122.00000000000632,4
730,122.18158896577194,5
731,122.36321520752254,5
732,122.54487872525816,3
733,122.7265795189788,3
734,122.90831758868444,5
735,123.09009293437512,2
736,123.2719055560508,4
737,123.45375545371148,3
738,123.63564262735719,2
739,123.81756707698791,0
740,123.99952880260366,4
741,124.1815278042044,5
742,124.36356408179017,1
743,124.54563763536095,5
744,124.72774846491674,2
745,124.90989657045756,2
746,125.09208195198339,2
747,125.27430460949422,3
748,125.45656454299008,3
749,125.63886175247094,3
750,125.82119623793682,3
751,126.00356799938773,5
752,126.18597703682364,0
753,126.36842335024457,1
754,126.5509069396505,0
755,126.73342780504146,2
756,126.91598594641744,0
757,127.09858136377842,2
758,127.28121405712442,2
759,127.46388402645542,6
760,127.64659127177146,5
761,127.82933579307252,3
762,128.01211759035857,1
763,128.19493666362962,2
764,128.37779301288572,1
765,128.5606866381268,1
766,128.74361753935293,2
767,128.92658571656406,3
768,129.1095911697602,5
769,129.29263389894135,4
770,129.47571390410752,3
771,129.65883118525872,1
772,129.84198574239494,2
773,130.02517757551615,2
774,130.20840668462236,1
775,130.39167306971362,4
776,130.57497673078987,0
777,130.75831766785114,4
778,130.94169588089744,5
779,131.12511136992873,7
780,131.30856413494504,2
781,131.4920541759464,8
782,131.67558149293274,3
783,131.85914608590411,3
784,132.0427479548605,4
785,132.22638709980185,2
786,132.41006352072827,4
787,132.5937772176397,5
788,132.77752819053612,3
789,132.96131643941757,4
790,133.14514196428402,4
791,133.32900476513552,3
792,133.51290484197202,1
793,133.69684219479353,4
794,133.88081682360004,0
795,134.06482872839157,1
796,134.24887790916813,5
797,134.4329643659297,4
798,134.61708809867628,2
799,134.80124910740787,2
800,134.98544739212446,3
801,135.1696829528261,2
802,135.35395578951272,0
803,135.53826590218438,0
804,135.72261329084105,2
805,135.90699795548272,1
806,136.09141989610941,3
807,136.27587911272113,2
808,136.46037560531786,3
809,136.6449093738996,3
810,136.82948041846635,4
811,137.01408873901812,5
812,137.19873433555492,3
813,137.3834172080767,3
814,137.56813735658352,2
815,137.75289478107533,0
816,137.93768948155218,1
817,138.12252145801403,2
818,138.3073907104609,1
819,138.49229723889277,2
820,138.6772410433097,3
821,138.8622221237116,5
822,139.04724048009854,1
823,139.23229611247046,3
824,139.41738902082741,4
825,139.6025192051694,1
826,139.78768666549638,6
827,139.9728914018084,2
828,140.1581334141054,2
829,140.3434127023874,1
830,140.52872926665447,3
831,140.71408310690654,4
832,140.89947422314359,1
833,141.08490261536568,3
834,141.27036828357276,3
835,141.4558712277649,2
836,141.64141144794203,2
837,141.82698894410416,5
838,142.01260371625133,3
839,142.1982557643835,2
840,142.3839450885007,4
841,142.5696716886029,5
842,142.75543556469012,2
843,142.94123671676235,3
844,143.1270751448196,4
845,143.31295084886185,0
846,143.49886382888914,1
847,143.68481408490143,2
848,143.87080161689875,1
849,144.05682642488102,5
850,144.24288850884838,1
851,144.42898786880073,2
852,144.61512450473808,0
853,144.80129841666047,1
854,144.98750960456786,1
855,145.17375806846027,2
856,145.3600438083377,3
857,145.5463668242001,2
858,145.73272711604758,3
859,145.91912468388003,1
860,146.10555952769752,3
861,146.2920316475,2
862,146.47854104328752,2
863,146.66508771506005,7
864,146.85167166281755,1
865,147.03829288656013,1
866,147.2249513862877,4
867,147.41164716200026,4
868,147.59838021369788,3
869,147.78515054138046,3
870,147.9719581450481,3
871,148.15880302470075,5
872,148.3456851803384,5
873,148.53260461196106,1
874,148.71956131956873,1
875,148.90655530316144,5
876,149.09358656273915,0
877,149.28065509830188,3
878,149.46776090984963,4
879,149.65490399738235,7
880,149.84208436090015,3
881,150.02930200040294,5
882,150.21655691589072,4
883,150.40384910736353,2
884,150.59117857482136,3
885,150.7785453182642,1
886,150.96594933769208,3
887,151.15339063310492,5
888,151.3408692045028,2
889,151.5283850518857,3
890,151.71593817525363,1
891,151.90352857460655,2
892,152.0911562499445,3
893,152.27882120126745,0
894,152.4665234285754,7
895,152.6542629318684,2
896,152.84203971114644,3
897,153.02985376640942,4
898,153.21770509765747,0
899,153.4055937048905,1
900,153.59351958810856,2
901,153.78148274731163,3
902,153.96948318249972,6
903,154.15752089367282,1
904,154.34559588083093,4
905,154.53370814397408,1
906,154.7218576831022,3
907,154.91004449821537,4
908,155.09826858931356,1
909,155.28652995639675,3
910,155.47482859946496,2
911,155.66316451851816,2
912,155.8515377135564,4
913,156.03994818457966,1
914,156.2283959315879,1
915,156.4168809545812,2
916,156.60540325355947,2
917,156.79396282852278,2
918,156.9825596794711,2
919,157.17119380640443,2
920,157.3598652093228,4
921,157.54857388822614,6
922,157.73731984311453,3
923,157.92610307398795,2
924,158.11492358084632,2
925,158.30378136368975,2
926,158.49267642251817,5
927,158.68160875733165,5
928,158.8705783681301,1
929,159.05958525491357,1
930,159.24862941768208,2
931,159.4377108564356,3
932,159.6268295711741,0
933,159.81598556189766,3
934,160.0051788286062,0
935,160.19440937129977,3
936,160.38367718997833,0
937,160.57298228464194,4
938,160.76232465529057,3
939,160.95170430192417,2
940,161.14112122454281,1
941,161.33057542314646,5
942,161.52006689773515,2
943,161.70959564830883,4
944,161.8991616748675,1
945,162.08876497741124,3
946,162.27840555593994,2
947,162.46808341045372,3
948,162.65779854095246,3
949,162.84755094743622,0
950,163.037340629905,4
951,163.2271675883588,2
952,163.4170318227976,1
953,163.60693333322146,3
954,163.79687211963028,2
955,163.98684818202415,6
956,164.176861520403,1
957,164.36691213476692,2
958,164.55700002511583,2
959,164.74712519144973,1
960,164.93728763376865,6
961,165.1274873520726,3
962,165.31772434636156,2
963,165.50799861663555,2
964,165.6983101628945,4
965,165.88865898513853,0
966,166.07904508336753,3
967,166.26946845758155,1
968,166.45992910778062,2
969,166.65042703396466,2
970,166.84096223613375,1
971,167.03153471428783,1
972,167.22214446842693,1
973,167.41279149855106,2
974,167.60347580466018,3
975,167.79419738675435,2
976,167.98495624483348,4
977,168.17575237889767,3
978,168.36658578894688,3
979,168.55745647498108,4
980,168.7483644370003,2
981,168.93930967500452,7
982,169.13029218899376,1
983,169.32131197896803,3
984,169.5123690449273,2
985,169.70346338687162,0
986,169.8945950048009,0
987,170.08576389871524,5
988,170.27697006861456,4
989,170.46821351449893,1
990,170.6594942363683,2
991,170.85081223422264,1
992,171.04216750806205,2
993,171.23356005788645,1
994,171.42498988369587,0
995,171.61645698549034,2
996,171.80796136326975,1
997,171.99950301703424,2
998,172.19108194678373,0
999,172.3826981525182,1
1000,172.57435163423773,2
1001,172.76604239194225,2
1002,172.9577704256318,2
1003,173.14953573530633,2
1004,173.34133832096592,2
1005,173.5331781826105,0
1006,173.72505532024007,0
1007,173.9169697338547,5
1008,174.10892142345432,3
1009,174.30091038903896,1
1010,174.49293663060863,2
1011,174.68500014816328,2
1012,174.877100941703,1
1013,175.06923901122767,3
1014,175.2614143567374,3
1015,175.45362697823214,2
1016,175.64587687571185,3
1017,175.8381640491766,0
1018,176.03048849862637,0
1019,176.22285022406118,0
1020,176.41524922548098,1
1021,176.60768550288577,1
1022,176.80015905627562,2
1023,176.99266988565046,2
