Spectrum Name:
Description:
Student ID:
Detector Used:
Comments:
Acquisition Mode:,PHA Pre-Amp
High Voltage:,700
Conversion Gain:,1024
Coarse Gain:,4
Fine Gain:,255
Upper Discriminator:,732
Lower Discriminator:,17
Calibration Coefficients:,1.3307922733696474E-4,0.551643528457447,8.16155316033818
Calibration Channels:,197,140,962
Calibration Energies:,122.0,88.0,662.0
Elapsed Real Time:,360.0
Elapsed Live Time:,345.6
Start Time:,October 13, 2017, 09:23:32
End Time:,October 13, 2017, 09:29:32
ROIs:
ROI:,Low,High,Gross,Net,FWHM,Centroid


Channel Data:
Channel,Energy,Counts
0,8.16155316033818,0
1,8.713329768022964,0
2,9.265372534162422,0
3,9.817681458756553,0
4,10.37025654180536,1
5,10.923097783308839,1
6,11.476205183266993,0
7,12.02957874167982,3
8,12.583218458547321,3
9,13.137124333869497,4
10,13.691296367646347,6
11,14.24573455987787,6
12,14.800438910564067,8
13,15.355409419704937,8
14,15.910646087300483,6
15,16.4661489133507,6
16,17.021917897855595,6
17,17.57795304081516,14
18,18.134254342229404,14
19,18.69082180209832,47
20,19.247655420421907,842
21,19.80475519720017,1030
22,20.362121132433103,1047
23,20.919753226120715,1011
24,21.477651478263,1130
25,22.035815888859958,1042
26,22.594246457911588,1105
27,23.152943185417897,1130
28,23.711906071378877,1140
29,24.271135115794532,1155
30,24.83063031866486,1172
31,25.39039167998986,1204
32,25.950419199769538,1198
33,26.510712878003886,1290
34,27.07127271469291,1323
35,27.632098709836608,1333
36,28.193190863434978,1490
37,28.754549175488023,1539
38,29.316173645995743,1783
39,29.878064274958138,2121
40,30.440221062375205,2278
41,31.002644008246946,3090
42,31.56533311257336,3922
43,32.12828837535445,5016
44,32.69150979659021,6335
45,33.25499737628065,7661
46,33.81875111442576,9152
47,34.38277101102554,10342
48,34.947057066080006,11519
49,35.51160927958914,12044
50,36.07642765155295,12230
51,36.64151218197142,12003
52,37.206862870844574,11267
53,37.772479718172406,10008
54,38.33836272395491,9224
55,38.90451188819208,7796
56,39.470927210883936,6726
57,40.03760869203046,5562
58,40.604556331631656,4792
59,41.17177012968753,4098
60,41.739250086198076,3642
61,42.306996201163294,3047
62,42.87500847458319,2701
63,43.44328690645776,2353
64,44.011831496786996,2034
65,44.580642245570914,1820
66,45.1497191528095,1552
67,45.71906221850276,1400
68,46.2886714426507,1380
69,46.85854682525331,1288
70,47.428688366310595,1311
71,47.999096065822556,1285
72,48.56976992378919,1218
73,49.1407099402105,1083
74,49.71191611508648,1303
75,50.283388448417135,1162
76,50.85512694020246,1182
77,51.427131590442464,1120
78,51.99940239913714,1107
79,52.57193936628649,1115
80,53.14474249189052,1091
81,53.717811775949215,1137
82,54.291147218462584,1110
83,54.86474881943063,1093
84,55.43861657885335,1151
85,56.012750496730746,1197
86,56.587150573062814,1171
87,57.161816807849554,1262
88,57.73674920109097,1189
89,58.31194775278706,1264
90,58.887412462937824,1148
91,59.463143331543264,1142
92,60.039140358603376,1132
93,60.61540354411816,1144
94,61.19193288808762,1209
95,61.768728390511754,1206
96,62.34579005139056,1158
97,62.92311787072404,1171
98,63.500711848512196,1220
99,64.07857198475503,1219
100,64.65669827945253,1231
101,65.2350907326047,1231
102,65.81374934421156,1246
103,66.39267411427309,1257
104,66.97186504278929,1346
105,67.55132212976015,1287
106,68.13104537518569,1361
107,68.71103477906593,1429
108,69.29129034140081,1406
109,69.87181206219037,1506
110,70.45259994143463,1542
111,71.03365397913353,1654
112,71.61497417528713,1629
113,72.19656052989541,1759
114,72.77841304295833,1763
115,73.36053171447594,1812
116,73.94291654444822,1864
117,74.52556753287519,1847
118,75.10848467975683,1796
119,75.69166798509312,1850
120,76.27511744888412,1815
121,76.85883307112977,1773
122,77.4428148518301,1694
123,78.0270627909851,1746
124,78.61157688859478,1688
125,79.19635714465912,1680
126,79.78140355917816,1646
127,80.36671613215185,1487
128,80.95229486358022,1530
129,81.53813975346327,1549
130,82.124250801801,1530
131,82.7106280085934,1466
132,83.29727137384046,1480
133,83.8841808975422,1468
134,84.47135657969861,1379
135,85.0587984203097,1484
136,85.64650641937547,1404
137,86.23448057689592,1420
138,86.82272089287102,1378
139,87.41122736730082,1358
140,88.00000000018528,1359
141,88.58903879152442,1339
142,89.1783437413182,1261
143,89.7679148495667,1268
144,90.35775211626986,1233
145,90.94785554142769,1250
146,91.53822512504019,1247
147,92.12886086710736,1221
148,92.71976276762922,1218
149,93.31093082660573,1149
150,93.90236504403694,1146
151,94.4940654199228,1148
152,95.08603195426335,1140
153,95.67826464705857,1199
154,96.27076349830847,1075
155,96.86352850801305,1105
156,97.45655967617228,1116
157,98.04985700278621,1173
158,98.6434204878548,1173
159,99.23725013137806,1138
160,99.831345933356,1195
161,100.42570789378863,1183
162,101.0203360126759,1098
163,101.61523029001785,1156
164,102.2103907258145,1171
165,102.80581732006581,1140
166,103.40151007277177,1101
167,103.99746898393244,1153
168,104.59369405354778,1173
169,105.19018528161777,1149
170,105.78694266814244,1146
171,106.3839662131218,1141
172,106.98125591655582,1165
173,107.57881177844453,1109
174,108.17663379878792,1153
175,108.77472197758595,1141
176,109.37307631483867,1225
177,109.97169681054606,1230
178,110.57058346470814,1173
179,111.16973627732489,1175
180,111.76915524839629,1221
181,112.3688403779224,1211
182,112.96879166590315,1183
183,113.56900911233859,1182
184,114.1694927172287,1248
185,114.7702424805735,1229
186,115.37125840237294,1213
187,115.9725404826271,1222
188,116.5740887213359,1228
189,117.17590311849938,1190
190,117.77798367411754,1230
191,118.38033038819037,1272
192,118.98294326071789,1224
193,119.58582229170005,1248
194,120.1889674811369,1203
195,120.79237882902842,1300
196,121.39605633537462,1306
197,122.0000000001755,1285
198,122.60420982343106,1286
199,123.20868580514127,1314
200,123.81342794530616,1313
201,124.41843624392575,1286
202,125.023710701,1279
203,125.6292513165289,1293
204,126.2350580905125,1307
205,126.84113102295075,1320
206,127.4474701138437,1256
207,128.05407536319132,1367
208,128.6609467709936,1268
209,129.26808433725057,1364
210,129.8754880619622,1266
211,130.4831579451285,1242
212,131.09109398674948,1330
213,131.69929618682514,1273
214,132.30776454535547,1312
215,132.91649906234048,1309
216,133.52549973778017,1275
217,134.1347665716745,1245
218,134.74429956402355,1243
219,135.35409871482724,1256
220,135.96416402408562,1244
221,136.57449549179867,1264
222,137.18509311796637,1304
223,137.79595690258878,1291
224,138.40708684566584,1294
225,139.01848294719758,1271
226,139.630145207184,1313
227,140.2420736256251,1263
228,140.85426820252087,1330
229,141.4667289378713,1260
230,142.07945583167643,1321
231,142.6924488839362,1314
232,143.30570809465067,1302
233,143.9192334638198,1267
234,144.53302499144363,1254
235,145.1470826775221,1314
236,145.76140652205527,1316
237,146.3759965250431,1302
238,146.9908526864856,1360
239,147.60597500638278,1339
240,148.22136348473464,1258
241,148.83701812154115,1305
242,149.45293891680237,1310
243,150.06912587051823,1317
244,150.68557898268878,1424
245,151.302298253314,1295
246,151.9192836823939,1293
247,152.53653526992846,1372
248,153.15405301591773,1330
249,153.77183692036164,1299
250,154.38988698326023,1297
251,155.0082032046135,1303
252,155.62678558442144,1355
253,156.24563412268404,1309
254,156.86474881940134,1353
255,157.4841296745733,1324
256,158.10377668819993,1417
257,158.72368986028124,1356
258,159.34386919081723,1317
259,159.96431467980787,1423
260,160.58502632725322,1390
261,161.20600413315321,1416
262,161.8272480975079,1413
263,162.44875822031725,1419
264,163.07053450158128,1442
265,163.6925769413,1497
266,164.31488553947335,1427
267,164.93746029610142,1504
268,165.56030121118414,1460
269,166.18340828472154,1610
270,166.80678151671358,1698
271,167.43042090716034,1614
272,168.05432645606177,1676
273,168.67849816341786,1688
274,169.30293602922862,1656
275,169.92764005349406,1755
276,170.55261023621418,1741
277,171.17784657738898,1833
278,171.80334907701842,1833
279,172.42911773510255,1979
280,173.05515255164138,1907
281,173.68145352663487,1953
282,174.30802066008303,1933
283,174.93485395198584,2090
284,175.56195340234336,2011
285,176.18931901115553,2079
286,176.81695077842238,2176
287,177.4448487041439,2149
288,178.0730127883201,2161
289,178.701443030951,2236
290,179.33013943203653,2165
291,179.95910199157677,2263
292,180.58833070957166,2282
293,181.21782558602123,2374
294,181.84758662092548,2309
295,182.4776138142844,2272
296,183.107907166098,2427
297,183.73846667636627,2333
298,184.3692923450892,2300
299,185.00038417226682,2303
300,185.6317421578991,2275
301,186.26336630198605,2274
302,186.8952566045277,2309
303,187.52741306552403,2231
304,188.159835684975,2289
305,188.79252446288066,2291
306,189.425479399241,2266
307,190.058700494056,2239
308,190.69218774732568,2232
309,191.32594115905002,2197
310,191.95996072922907,2199
311,192.59424645786277,2265
312,193.22879834495114,2113
313,193.8636163904942,2148
314,194.4987005944919,2221
315,195.13405095694432,2136
316,195.76966747785139,2116
317,196.40555015721313,2056
318,197.04169899502955,2010
319,197.67811399130065,1920
320,198.3147951460264,1903
321,198.95174245920686,1987
322,199.58895593084196,2017
323,200.22643556093175,1976
324,200.8641813494762,1901
325,201.50219329647535,1891
326,202.14047140192918,1908
327,202.77901566583765,1963
328,203.4178260882008,1749
329,204.05690266901865,1850
330,204.69624540829116,1841
331,205.33585430601832,1855
332,205.97572936220018,1692
333,206.61587057683673,1741
334,207.25627794992792,1769
335,207.8969514814738,1738
336,208.53789117147434,1733
337,209.17909701992957,1728
338,209.82056902683948,1663
339,210.46230719220404,1594
340,211.10431151602327,1616
341,211.74658199829722,1646
342,212.3891186390258,1639
343,213.03192143820905,1610
344,213.674990395847,1582
345,214.31832551193963,1590
346,214.9619267864869,1572
347,215.60579421948887,1591
348,216.2499278109455,1524
349,216.89432756085682,1492
350,217.53899346922282,1414
351,218.18392553604346,1457
352,218.8291237613188,1468
353,219.4745881450488,1426
354,220.1203186872335,1414
355,220.76631538787285,1436
356,221.4125782469669,1387
357,222.05910726451557,1444
358,222.70590244051894,1416
359,223.352963774977,1394
360,224.00029126788974,1382
361,224.64788491925714,1369
362,225.2957447290792,1439
363,225.94387069735595,1432
364,226.59226282408736,1353
365,227.24092110927347,1328
366,227.88984555291424,1375
367,228.53903615500968,1359
368,229.18849291555978,1307
369,229.83821583456458,1320
370,230.48820491202403,1340
371,231.1384601479382,1325
372,231.788981542307,1314
373,232.4397690951305,1355
374,233.09082280640862,1226
375,233.74214267614147,1336
376,234.393728704329,1254
377,235.04558089097117,1228
378,235.69769923606802,1193
379,236.35008373961955,1218
380,237.00273440162576,1264
381,237.65565122208662,1225
382,238.30883420100218,1217
383,238.9622833383724,1161
384,239.6159986341973,1212
385,240.26998008847687,1274
386,240.92422770121112,1215
387,241.57874147240003,1107
388,242.23352140204364,1152
389,242.8885674901419,1145
390,243.54387973669483,1201
391,244.19945814170248,1229
392,244.85530270516475,1146
393,245.51141342708172,1157
394,246.16779030745334,1146
395,246.82443334627968,1139
396,247.48134254356066,1075
397,248.13851789929632,1119
398,248.79595941348666,1118
399,249.45366708613165,1145
400,250.11164091723134,1143
401,250.7698809067857,1169
402,251.42838705479474,1171
403,252.08715936125841,1113
404,252.7461978261768,1094
405,253.40550244954986,1071
406,254.06507323137757,1050
407,254.72491017165999,1062
408,255.38501327039705,1087
409,256.0453825275888,1013
410,256.7060179432352,1087
411,257.3669195173363,1075
412,258.0280872498921,1106
413,258.68952114090257,1071
414,259.35122119036765,1085
415,260.01318739828747,1052
416,260.6754197646619,1064
417,261.3379182894911,1086
418,262.0006829727749,1032
419,262.66371381451336,1087
420,263.3270108147065,943
421,263.99057397335434,1064
422,264.65440329045686,1015
423,265.31849876601405,1031
424,265.9828604000259,1056
425,266.64748819249246,1012
426,267.31238214341363,1035
427,267.97754225278953,974
428,268.64296852062006,961
429,269.3086609469053,1033
430,269.9746195316452,983
431,270.64084427483976,1002
432,271.307335176489,993
433,271.9740922365929,1004
434,272.6411154551515,1036
435,273.3084048321648,1021
436,273.97596036763275,979
437,274.6437820615554,954
438,275.31186991393264,992
439,275.98022392476463,933
440,276.64884409405124,980
441,277.3177304217926,994
442,277.98688290798856,1009
443,278.6563015526392,927
444,279.32598635574453,984
445,279.9959373173046,978
446,280.6661544373192,912
447,281.3366377157886,940
448,282.0073871527126,908
449,282.67840274809134,944
450,283.34968450192474,927
451,284.02123241421276,927
452,284.6930464849555,992
453,285.3651267141529,956
454,286.03747310180495,981
455,286.71008564791174,1032
456,287.38296435247315,969
457,288.05610921548924,972
458,288.72952023696,960
459,289.40319741688546,851
460,290.0771407552656,960
461,290.75135025210034,991
462,291.4258259073898,965
463,292.100567721134,927
464,292.77557569333277,929
465,293.4508498239863,1019
466,294.12639011309443,972
467,294.80219656065725,895
468,295.47826916667475,907
469,296.154607931147,956
470,296.83121285407384,922
471,297.5080839354553,967
472,298.18522117529153,942
473,298.8626245735825,934
474,299.540294130328,888
475,300.2182298455282,964
476,300.8964317191831,880
477,301.5748997512927,952
478,302.25363394185695,980
479,302.9326342908758,1005
480,303.61190079834944,873
481,304.29143346427776,848
482,304.97123228866064,897
483,305.65129727149827,876
484,306.33162841279056,962
485,307.01222571253754,914
486,307.6930891707392,927
487,308.3742187873955,881
488,309.0556145625065,908
489,309.7372764960722,922
490,310.4192045880925,890
491,311.10139883856743,929
492,311.78385924749716,884
493,312.46658581488157,883
494,313.14957854072054,837
495,313.83283742501425,897
496,314.51636246776263,888
497,315.2001536689657,890
498,315.88421102862344,896
499,316.5685345467358,908
500,317.2531242233029,893
501,317.9379800583247,865
502,318.6231020518011,903
503,319.3084902037321,865
504,319.9941445141179,898
505,320.6800649829584,862
506,321.3662516102535,855
507,322.05270439600326,841
508,322.73942334020774,902
509,323.42640844286694,848
510,324.1136597039807,855
511,324.80117712354917,862
512,325.48896070157235,860
513,326.1770104380502,891
514,326.8653263329827,861
515,327.55390838636987,841
516,328.24275659821177,848
517,328.9318709685083,837
518,329.6212514972595,865
519,330.3108981844653,843
520,331.00081103012593,820
521,331.69099003424117,884
522,332.381435196811,874
523,333.0721465178356,855
524,333.7631239973149,903
525,334.45436763524884,856
526,335.1458774316374,832
527,335.8376533864806,869
528,336.5296954997786,888
529,337.22200377153126,838
530,337.9145782017385,875
531,338.60741879040046,865
532,339.3005255375171,883
533,339.9938984430885,825
534,340.6875375071144,858
535,341.38144272959505,835
536,342.0756141105304,842
537,342.77005164992045,826
538,343.4647553477651,824
539,344.15972520406444,840
540,344.8549612188185,927
541,345.55046339202727,827
542,346.2462317236906,858
543,346.94226621380864,793
544,347.63856686238137,862
545,348.3351336694088,840
546,349.03196663489086,817
547,349.7290657588276,850
548,350.426431041219,851
549,351.12406248206514,838
550,351.8219600813659,853
551,352.5201238391213,815
552,353.21855375533147,799
553,353.91724982999625,824
554,354.6162120631157,854
555,355.31544045468985,817
556,356.01493500471867,887
557,356.71469571320216,884
558,357.41472258014034,836
559,358.11501560553313,815
560,358.81557478938066,838
561,359.5164001316829,823
562,360.2174916324397,857
563,360.9188492916512,857
564,361.62047310931746,802
565,362.3223630854384,791
566,363.0245192200139,844
567,363.7269415130441,849
568,364.429629964529,800
569,365.13258457446864,802
570,365.83580534286284,845
571,366.5392922697117,851
572,367.24304535501534,869
573,367.9470645987737,770
574,368.6513500009866,879
575,369.3559015616542,836
576,370.0607192807765,849
577,370.7658031583535,799
578,371.4711531943851,801
579,372.1767693888714,816
580,372.8826517418124,838
581,373.5888002532081,865
582,374.2952149230584,827
583,375.0018957513634,827
584,375.7088427381231,832
585,376.4160558833375,868
586,377.1235351870065,875
587,377.8312806491302,853
588,378.5392922697086,776
589,379.2475700487417,880
590,379.95611398622935,826
591,380.66492408217175,881
592,381.3740003365688,844
593,382.08334274942064,841
594,382.792951320727,830
595,383.50282605048807,823
596,384.2129669387039,822
597,384.9233739853744,857
598,385.6340471904995,813
599,386.34498655407924,765
600,387.05619207611375,828
601,387.7676637566029,787
602,388.4794015955467,852
603,389.19140559294516,818
604,389.9036757487983,838
605,390.6162120631062,840
606,391.3290145358687,781
607,392.0420831670858,838
608,392.75541795675775,886
609,393.4690189048843,828
610,394.1828860114655,834
611,394.89701927650134,853
612,395.61141869999193,827
613,396.32608428193714,855
614,397.04101602233703,806
615,397.7562139211916,837
616,398.47167797850085,879
617,399.18740819426483,860
618,399.9034045684834,846
619,400.6196671011566,868
620,401.3361957922846,915
621,402.05299064186727,813
622,402.77005164990453,915
623,403.4873788163965,875
624,404.20497214134315,840
625,404.92283162474445,850
626,405.6409572666004,862
627,406.3593490669111,836
628,407.0780070256764,838
629,407.7969311428965,835
630,408.5161214185711,800
631,409.2355778527005,850
632,409.95530044528454,806
633,410.67528919632326,845
634,411.3955441058166,869
635,412.11606517376464,849
636,412.8368524001674,840
637,413.55790578502484,872
638,414.27922532833685,877
639,415.0008110301036,882
640,415.72266289032507,810
641,416.44478090900117,814
642,417.16716508613194,865
643,417.88981542171734,856
644,418.6127319157575,865
645,419.3359145682523,877
646,420.0593633792018,881
647,420.7830783486059,869
648,421.5070594764647,798
649,422.2313067627782,900
650,422.95582020754637,818
651,423.6805998107692,829
652,424.4056455724467,872
653,425.13095749257894,841
654,425.85653557116575,801
655,426.5823798082073,802
656,427.3084902037035,824
657,428.0348667576544,908
658,428.76150947005993,815
659,429.48841834092013,819
660,430.21559337023507,843
661,430.9430345580047,848
662,431.6707419042289,824
663,432.3987154089078,848
664,433.1269550720414,802
665,433.85546089362975,840
666,434.58423287367265,867
667,435.3132710121702,798
668,436.0425753091226,807
669,436.77214576452957,832
670,437.5019823783912,749
671,438.23208515070746,791
672,438.9624540814785,767
673,439.6930891707042,710
674,440.4239904183845,818
675,441.15515782451945,740
676,441.8865913891092,752
677,442.6182911121536,775
678,443.3502569936526,746
679,444.08248903360624,706
680,444.8149872320147,678
681,445.54775158887776,737
682,446.28078210419545,663
683,447.0140787779678,741
684,447.74764161019493,699
685,448.4814706008767,706
686,449.2155657500131,700
687,449.94992705760416,683
688,450.68455452365,672
689,451.4194481481505,626
690,452.15460793110555,627
691,452.89003387251535,618
692,453.6257259723798,602
693,454.361684230699,604
694,455.09790864747276,596
695,455.8343992227013,580
696,456.5711559563844,568
697,457.3081788485223,519
698,458.0454678991148,571
699,458.78302310816196,548
700,459.52084447566386,512
701,460.2589320016204,519
702,460.9972856860316,501
703,461.73590552889743,477
704,462.474791530218,485
705,463.2139436899933,497
706,463.95336200822317,436
707,464.6930464849077,468
708,465.432997120047,446
709,466.17321391364095,460
710,466.91369686568953,423
711,467.6544459761928,442
712,468.3954612451507,434
713,469.1367426725634,363
714,469.87829025843064,375
715,470.6201040027526,388
716,471.36218390552926,369
717,472.1045299667606,382
718,472.84714218644655,367
719,473.5900205645872,331
720,474.3331651011826,347
721,475.0765757962326,334
722,475.82025264973726,327
723,476.5641956616966,308
724,477.3084048321107,294
725,478.05288016097944,289
726,478.79762164830277,294
727,479.54262929408077,298
728,480.28790309831356,321
729,481.033443061001,279
730,481.779249182143,279
731,482.5253214617398,279
732,483.27165989979125,265
733,484.0182644962974,287
734,484.7651352512581,288
735,485.5122721646735,250
736,486.25967523654367,271
737,487.00734446686846,227
738,487.7552798556479,261
739,488.5034814028821,240
740,489.2519491085709,258
741,490.0006829727144,219
742,490.7496829953125,209
743,491.49894917636533,234
744,492.2484815158729,225
745,492.9982800138351,250
746,493.7483446702519,218
747,494.49867548512344,207
748,495.2492724584497,224
749,496.0001355902306,214
750,496.7512648804661,209
751,497.50266032915636,175
752,498.25432193630127,216
753,499.00624970190086,225
754,499.75844362595507,202
755,500.510903708464,185
756,501.26362994942764,193
757,502.01662234884594,205
758,502.76988090671887,186
759,503.5234056230465,182
760,504.27719649782875,180
761,505.0312535310658,181
762,505.7855767227574,187
763,506.5401660729037,202
764,507.2950215815047,166
765,508.0501432485604,190
766,508.8055310740707,169
767,509.5611850580357,167
768,510.3171052004554,188
769,511.0732915013298,175
770,511.8297439606588,167
771,512.5864625784425,164
772,513.3434473546808,153
773,514.1006982893739,170
774,514.8582153825216,154
775,515.615998634124,190
776,516.3740480441811,153
777,517.1323636126929,149
778,517.8909453396593,161
779,518.6497932250804,151
780,519.4089072689562,141
781,520.1682874712867,153
782,520.9279338320717,155
783,521.6878463513115,140
784,522.448025029006,175
785,523.2084698651552,150
786,523.9691808597589,172
787,524.7301580128175,144
788,525.4914013243306,140
789,526.2529107942985,140
790,527.014686422721,138
791,527.7767282095981,159
792,528.53903615493,137
793,529.3016102587166,163
794,530.0644505209577,152
795,530.8275569416536,127
796,531.5909295208043,106
797,532.3545682584095,120
798,533.1184731544694,131
799,533.882644208984,134
800,534.6470814219532,132
801,535.4117847933771,129
802,536.1767543232558,124
803,536.9419900115889,111
804,537.7074918583769,118
805,538.4732598636197,151
806,539.2392940273169,134
807,540.0055943494688,125
808,540.7721608300754,119
809,541.5389934691368,108
810,542.3060922666527,101
811,543.0734572226235,123
812,543.8410883370489,131
813,544.6089856099288,140
814,545.3771490412635,115
815,546.1455786310528,111
816,546.9142743792969,102
817,547.6832362859957,114
818,548.452464351149,140
819,549.2219585747571,104
820,549.9917189568198,119
821,550.7617454973372,116
822,551.5320381963093,108
823,552.302597053736,124
824,553.0734220696174,125
825,553.8445132439535,113
826,554.6158705767443,126
827,555.3874940679898,132
828,556.1593837176899,131
829,556.9315395258448,121
830,557.7039614924541,95
831,558.4766496175183,113
832,559.2496039010372,117
833,560.0228243430107,123
834,560.7963109434388,112
835,561.5700637023216,88
836,562.3440826196592,100
837,563.1183676954514,95
838,563.8929189296982,125
839,564.6677363223997,110
840,565.442819873556,122
841,566.2181695831669,120
842,566.9937854512324,124
843,567.7696674777526,125
844,568.5458156627276,109
845,569.3222300061572,107
846,570.0989105080414,118
847,570.8758571683803,124
848,571.6530699871739,106
849,572.4305489644222,123
850,573.2082941001252,112
851,573.9863053942827,114
852,574.7645828468951,112
853,575.5431264579621,139
854,576.3219362274837,109
855,577.10101215546,131
856,577.8803542418909,113
857,578.6599624867767,114
858,579.439836890117,139
859,580.219977451912,119
860,581.0003841721617,116
861,581.7810570508661,113
862,582.5619960880251,102
863,583.3432012836388,110
864,584.1246726377072,125
865,584.9064101502303,130
866,585.688413821208,130
867,586.4706836506404,126
868,587.2532196385275,104
869,588.0360217848693,127
870,588.8190900896657,131
871,589.6024245529168,164
872,590.3860251746225,140
873,591.169891954783,116
874,591.9540248933981,143
875,592.7384239904679,147
876,593.5230892459924,164
877,594.3080206599716,168
878,595.0932182324053,156
879,595.8786819632938,169
880,596.664411852637,189
881,597.4504079004349,193
882,598.2366701066874,201
883,599.0231984713945,207
884,599.8099929945564,185
885,600.597053676173,225
886,601.3843805162442,260
887,602.17197351477,233
888,602.9598326717506,273
889,603.7479579871858,265
890,604.5363494610758,290
891,605.3250070934203,318
892,606.1139308842196,328
893,606.9031208334735,359
894,607.6925769411821,378
895,608.4822992073454,397
896,609.2722876319633,407
897,610.062542215036,415
898,610.8530629565632,493
899,611.6438498565452,483
900,612.4349029149819,534
901,613.2262221318732,531
902,614.0178075072192,548
903,614.8096590410198,626
904,615.6017767332752,660
905,616.3941605839852,715
906,617.18681059315,710
907,617.9797267607693,827
908,618.7729090868434,797
909,619.5663575713721,848
910,620.3600722143555,895
911,621.1540530157935,956
912,621.9482999756863,1008
913,622.7428130940336,1031
914,623.5375923708357,1093
915,624.3326378060924,1186
916,625.1279493998039,1276
917,625.92352715197,1335
918,626.7193710625908,1339
919,627.5154811316662,1407
920,628.3118573591963,1475
921,629.1084997451812,1574
922,629.9054082896206,1646
923,630.7025829925147,1748
924,631.5000238538636,1838
925,632.2977308736671,1828
926,633.0957040519253,1966
927,633.893943388638,2038
928,634.6924488838056,2052
929,635.4912205374278,2350
930,636.2902583495047,2251
931,637.0895623200362,2354
932,637.8891324490224,2513
933,638.6889687364634,2692
934,639.4890711823588,2634
935,640.2894397867091,2814
936,641.090074549514,2949
937,641.8909754707736,2824
938,642.6921425504879,2959
939,643.4935757886567,3163
940,644.2952751852804,3220
941,645.0972407403588,3276
942,645.8994724538916,3458
943,646.7019703258792,3471
944,647.5047343563215,3509
945,648.3077645452186,3601
946,649.1110608925702,3778
947,649.9146233983764,3859
948,650.7184520626374,3913
949,651.5225468853532,3954
950,652.3269078665235,3987
951,653.1315350061485,4100
952,653.9364283042282,4112
953,654.7415877607626,4259
954,655.5470133757517,4197
955,656.3527051491953,4391
956,657.1586630810937,4391
957,657.9648871714468,4338
958,658.7713774202545,4400
959,659.5781338275169,4370
960,660.385156393234,4437
961,661.1924451174058,4426
962,662.0000000000323,4377
963,662.8078210411132,4583
964,663.6159082406491,4458
965,664.4242615986395,4512
966,665.2328811150846,4413
967,666.0417667899844,4481
968,666.8509186233389,4572
969,667.660336615148,4369
970,668.470020765412,4475
971,669.2799710741303,4342
972,670.0901875413035,4487
973,670.9006701669314,4307
974,671.7114189510138,4257
975,672.5224338935511,4170
976,673.333714994543,4194
977,674.1452622539896,4219
978,674.9570756718907,4097
979,675.7691552482465,3988
980,676.5815009830571,3953
981,677.3941128763224,3927
982,678.2069909280423,3810
983,679.0201351382168,3767
984,679.8335455068461,3636
985,680.6472220339301,3507
986,681.4611647194688,3539
987,682.2753735634619,3334
988,683.08984856591,3329
989,683.9045897268126,3224
990,684.7195970461698,3124
991,685.5348705239818,2989
992,686.3504101602484,2974
993,687.1662159549699,2793
994,687.9822879081458,2736
995,688.7986260197764,2570
996,689.6152302898618,2560
997,690.4321007184019,2448
998,691.2492373053965,2309
999,692.0666400508459,2376
1000,692.8843089547499,2201
1001,693.7022440171087,2233
1002,694.5204452379221,2046
1003,695.3389126171901,1908
1004,696.1576461549128,1840
1005,696.9766458510902,1816
1006,697.7959117057222,1610
1007,698.615443718809,1579
1008,699.4352418903504,1481
1009,700.2553062203466,1439
1010,701.0756367087974,1351
1011,701.8962333557027,1332
1012,702.717096161063,1304
1013,703.5382251248777,1118
1014,704.3596202471472,1031
1015,705.1812815278713,1049
1016,706.0032089670502,1015
1017,706.8254025646837,906
1018,707.6478623207719,892
1019,708.4705882353146,831
1020,709.2935803083122,756
1021,710.1168385397644,650
1022,710.9403629296712,662
1023,711.7641534780328,662
