\relax 
\providecommand\hyper@newdestlabel[2]{}
\providecommand\HyperFirstAtBeginDocument{\AtBeginDocument}
\HyperFirstAtBeginDocument{\ifx\hyper@anchor\@undefined
\global\let\oldcontentsline\contentsline
\gdef\contentsline#1#2#3#4{\oldcontentsline{#1}{#2}{#3}}
\global\let\oldnewlabel\newlabel
\gdef\newlabel#1#2{\newlabelxx{#1}#2}
\gdef\newlabelxx#1#2#3#4#5#6{\oldnewlabel{#1}{{#2}{#3}}}
\AtEndDocument{\ifx\hyper@anchor\@undefined
\let\contentsline\oldcontentsline
\let\newlabel\oldnewlabel
\fi}
\fi}
\global\let\hyper@last\relax 
\gdef\HyperFirstAtBeginDocument#1{#1}
\providecommand\HyField@AuxAddToFields[1]{}
\providecommand\HyField@AuxAddToCoFields[2]{}
\select@language{english}
\@writefile{toc}{\select@language{english}}
\@writefile{lof}{\select@language{english}}
\@writefile{lot}{\select@language{english}}
\@writefile{toc}{\contentsline {section}{\numberline {1}Bogolyubov Transformations}{1}{section.1}}
\@writefile{toc}{\contentsline {subsection}{\numberline {1.1}Bosons}{1}{subsection.1.1}}
\@writefile{toc}{\contentsline {subsection}{\numberline {1.2}Fermions}{2}{subsection.1.2}}
\@writefile{toc}{\contentsline {subsubsection}{\numberline {1.2.1}2D}{2}{subsubsection.1.2.1}}
\@writefile{thm}{\contentsline {remark}{{Remark}{1}{}}{2}{remark.1}}
\@writefile{thm}{\contentsline {remark}{{Remark}{2}{}}{3}{remark.2}}
\@writefile{thm}{\contentsline {example}{{Example}{1.{1}}{}}{3}{example.1.1}}
\@writefile{thm}{\contentsline {remark}{{Remark}{3}{}}{3}{remark.3}}
\@writefile{thm}{\contentsline {remark}{{Remark}{4}{}}{4}{remark.4}}
\@writefile{thm}{\contentsline {remark}{{Remark}{5}{}}{4}{remark.5}}
\@writefile{thm}{\contentsline {remark}{{Remark}{6}{}}{4}{remark.6}}
\@writefile{toc}{\contentsline {section}{\numberline {2}2nd Lecture - Phonons}{5}{section.2}}
\@writefile{thm}{\contentsline {remark}{{Remark}{7}{}}{5}{remark.7}}
\@writefile{thm}{\contentsline {remark}{{Remark}{8}{}}{7}{remark.8}}
\@writefile{thm}{\contentsline {remark}{{Remark}{9}{}}{7}{remark.9}}
\@writefile{toc}{\contentsline {subsection}{\numberline {2.1}Classical Case}{7}{subsection.2.1}}
\@writefile{thm}{\contentsline {remark}{{Remark}{10}{Homework}}{8}{remark.10}}
