\BOOKMARK [1][-]{section.1}{Bogolyubov Transformations}{}% 1
\BOOKMARK [2][-]{subsection.1.1}{Bosons}{section.1}% 2
\BOOKMARK [2][-]{subsection.1.2}{Fermions}{section.1}% 3
\BOOKMARK [3][-]{subsubsection.1.2.1}{2D}{subsection.1.2}% 4
\BOOKMARK [1][-]{section.2}{2nd Lecture - Phonons}{}% 5
\BOOKMARK [2][-]{subsection.2.1}{Classical Case}{section.2}% 6
