\select@language {english}
\contentsline {section}{\numberline {1}Bogolyubov Transformations}{1}{section.1}
\contentsline {subsection}{\numberline {1.1}Bosons}{1}{subsection.1.1}
\contentsline {subsection}{\numberline {1.2}Fermions}{2}{subsection.1.2}
\contentsline {subsubsection}{\numberline {1.2.1}2D}{2}{subsubsection.1.2.1}
\contentsline {section}{\numberline {2}2nd Lecture - Phonons}{5}{section.2}
\contentsline {subsection}{\numberline {2.1}Classical Case}{7}{subsection.2.1}
