\relax 
\providecommand\hyper@newdestlabel[2]{}
\providecommand\HyperFirstAtBeginDocument{\AtBeginDocument}
\HyperFirstAtBeginDocument{\ifx\hyper@anchor\@undefined
\global\let\oldcontentsline\contentsline
\gdef\contentsline#1#2#3#4{\oldcontentsline{#1}{#2}{#3}}
\global\let\oldnewlabel\newlabel
\gdef\newlabel#1#2{\newlabelxx{#1}#2}
\gdef\newlabelxx#1#2#3#4#5#6{\oldnewlabel{#1}{{#2}{#3}}}
\AtEndDocument{\ifx\hyper@anchor\@undefined
\let\contentsline\oldcontentsline
\let\newlabel\oldnewlabel
\fi}
\fi}
\global\let\hyper@last\relax 
\gdef\HyperFirstAtBeginDocument#1{#1}
\providecommand\HyField@AuxAddToFields[1]{}
\providecommand\HyField@AuxAddToCoFields[2]{}
\select@language{english}
\@writefile{toc}{\select@language{english}}
\@writefile{lof}{\select@language{english}}
\@writefile{lot}{\select@language{english}}
\@writefile{toc}{\contentsline {section}{\numberline {1}Finite Square Well Potential Scattering}{1}{section.1}}
\newlabel{eq:outside}{{{Through similar computations as last time}}{2}{Finite Square Well Potential Scattering}{AMS.3}{}}
\newlabel{eq:outside@cref}{{[equation][2147483647][]{Through similar computations as last time}}{2}}
\@writefile{toc}{\contentsline {subsection}{\numberline {1.1}Boundary Conditions}{2}{subsection.1.1}}
\@writefile{toc}{\contentsline {subsection}{\numberline {1.2}Zero-Order Scattering}{2}{subsection.1.2}}
\@writefile{toc}{\contentsline {section}{\numberline {2}Partial Scattering Coefficients in Scattering}{3}{section.2}}
\@writefile{toc}{\contentsline {subsection}{\numberline {2.1}Zeroth-Order Scattering Cross Section}{3}{subsection.2.1}}
\@writefile{toc}{\contentsline {subsection}{\numberline {2.2}First Order Correction to Scattering}{4}{subsection.2.2}}
\@writefile{thm}{\contentsline {remark}{{Remark}{1}{}}{5}{remark.1}}
\@writefile{toc}{\contentsline {section}{\numberline {3}Born Approximation}{5}{section.3}}
\@writefile{thm}{\contentsline {remark}{{Remark}{2}{}}{6}{remark.2}}
\@writefile{thm}{\contentsline {remark}{{Remark}{3}{}}{6}{remark.3}}
