\relax 
\providecommand\hyper@newdestlabel[2]{}
\providecommand\HyperFirstAtBeginDocument{\AtBeginDocument}
\HyperFirstAtBeginDocument{\ifx\hyper@anchor\@undefined
\global\let\oldcontentsline\contentsline
\gdef\contentsline#1#2#3#4{\oldcontentsline{#1}{#2}{#3}}
\global\let\oldnewlabel\newlabel
\gdef\newlabel#1#2{\newlabelxx{#1}#2}
\gdef\newlabelxx#1#2#3#4#5#6{\oldnewlabel{#1}{{#2}{#3}}}
\AtEndDocument{\ifx\hyper@anchor\@undefined
\let\contentsline\oldcontentsline
\let\newlabel\oldnewlabel
\fi}
\fi}
\global\let\hyper@last\relax 
\gdef\HyperFirstAtBeginDocument#1{#1}
\providecommand\HyField@AuxAddToFields[1]{}
\providecommand\HyField@AuxAddToCoFields[2]{}
\select@language{english}
\@writefile{toc}{\select@language{english}}
\@writefile{lof}{\select@language{english}}
\@writefile{lot}{\select@language{english}}
\@writefile{toc}{\contentsline {section}{\numberline {1}Phonons}{1}{section.1}}
\@writefile{toc}{\contentsline {subsection}{\numberline {1.1}Homework Assignment}{1}{subsection.1.1}}
\@writefile{toc}{\contentsline {subsection}{\numberline {1.2}Linear chain of N atoms}{1}{subsection.1.2}}
\@writefile{thm}{\contentsline {remark}{{Remark}{1}{}}{1}{remark.1}}
\@writefile{thm}{\contentsline {remark}{{Remark}{2}{}}{2}{remark.2}}
\@writefile{thm}{\contentsline {remark}{{Remark}{3}{}}{2}{remark.3}}
\@writefile{thm}{\contentsline {remark}{{Remark}{4}{}}{2}{remark.4}}
\@writefile{toc}{\contentsline {subsection}{\numberline {1.3}Transverse Modes}{2}{subsection.1.3}}
\@writefile{thm}{\contentsline {remark}{{Remark}{5}{}}{2}{remark.5}}
\@writefile{toc}{\contentsline {subsection}{\numberline {1.4}Enumeration of Modes}{3}{subsection.1.4}}
\@writefile{thm}{\contentsline {remark}{{Remark}{6}{}}{3}{remark.6}}
\@writefile{toc}{\contentsline {subsection}{\numberline {1.5}Compounds}{3}{subsection.1.5}}
\@writefile{thm}{\contentsline {remark}{{Remark}{7}{}}{3}{remark.7}}
\@writefile{toc}{\contentsline {section}{\numberline {2}Approximation Validation - Generalized Dispersion}{4}{section.2}}
\@writefile{thm}{\contentsline {example}{{Example}{2.{1}}{GaAs}}{4}{example.2.1}}
\@writefile{thm}{\contentsline {remark}{{Remark}{8}{}}{4}{remark.8}}
\@writefile{toc}{\contentsline {subsection}{\numberline {2.1}Photon/Phonon Momentum}{4}{subsection.2.1}}
\@writefile{toc}{\contentsline {subsection}{\numberline {2.2}Elastic Scattering of Neutron/Photon Beam}{5}{subsection.2.2}}
\@writefile{toc}{\contentsline {subsection}{\numberline {2.3}Inelastic Scattering of Neutron/Photon Beam}{5}{subsection.2.3}}
\newlabel{eq:mom_selec}{{{Momentum Selection Rule}}{5}{Inelastic Scattering of Neutron/Photon Beam}{AMS.6}{}}
\newlabel{eq:mom_selec@cref}{{[equation][2147483647][]{Momentum Selection Rule}}{5}}
\@writefile{thm}{\contentsline {remark}{{Remark}{9}{}}{5}{remark.9}}
\@writefile{thm}{\contentsline {remark}{{Remark}{10}{Experiments}}{5}{remark.10}}
\@writefile{thm}{\contentsline {remark}{{Remark}{11}{}}{5}{remark.11}}
\@writefile{thm}{\contentsline {remark}{{Remark}{12}{}}{5}{remark.12}}
