\select@language {english}
\contentsline {section}{\numberline {1}Coupled Oscillators}{1}{section.1}
\contentsline {subsection}{\numberline {1.1}Monoatomic Chain}{1}{subsection.1.1}
\contentsline {subsection}{\numberline {1.2}Biatomic Chain}{1}{subsection.1.2}
\contentsline {section}{\numberline {2}Quantum Mechanics Analogy}{3}{section.2}
\contentsline {subsection}{\numberline {2.1}Bugoliubov Transformations}{4}{subsection.2.1}
