\relax 
\providecommand\hyper@newdestlabel[2]{}
\providecommand\HyperFirstAtBeginDocument{\AtBeginDocument}
\HyperFirstAtBeginDocument{\ifx\hyper@anchor\@undefined
\global\let\oldcontentsline\contentsline
\gdef\contentsline#1#2#3#4{\oldcontentsline{#1}{#2}{#3}}
\global\let\oldnewlabel\newlabel
\gdef\newlabel#1#2{\newlabelxx{#1}#2}
\gdef\newlabelxx#1#2#3#4#5#6{\oldnewlabel{#1}{{#2}{#3}}}
\AtEndDocument{\ifx\hyper@anchor\@undefined
\let\contentsline\oldcontentsline
\let\newlabel\oldnewlabel
\fi}
\fi}
\global\let\hyper@last\relax 
\gdef\HyperFirstAtBeginDocument#1{#1}
\providecommand\HyField@AuxAddToFields[1]{}
\providecommand\HyField@AuxAddToCoFields[2]{}
\select@language{english}
\@writefile{toc}{\select@language{english}}
\@writefile{lof}{\select@language{english}}
\@writefile{lot}{\select@language{english}}
\@writefile{toc}{\contentsline {section}{\numberline {1}Introduction}{1}{section.1}}
\@writefile{thm}{\contentsline {example}{{Example}{1.{1}}{}}{2}{example.1.1}}
\@writefile{toc}{\contentsline {section}{\numberline {2}Total Vibrational Energy in Lattice}{2}{section.2}}
\@writefile{toc}{\contentsline {subsection}{\numberline {2.1}3D}{3}{subsection.2.1}}
\@writefile{toc}{\contentsline {paragraph}{Debye Approximation}{4}{section*.2}}
\@writefile{thm}{\contentsline {remark}{{Remark}{1}{}}{4}{remark.1}}
\@writefile{toc}{\contentsline {subsubsection}{\numberline {2.1.1}2-D}{4}{subsubsection.2.1.1}}
\@writefile{toc}{\contentsline {subsubsection}{\numberline {2.1.2}3-D}{4}{subsubsection.2.1.2}}
\@writefile{toc}{\contentsline {subsubsection}{\numberline {2.1.3}Overview}{5}{subsubsection.2.1.3}}
\@writefile{toc}{\contentsline {subsection}{\numberline {2.2}Stored Thermal Energy (Lattice)}{5}{subsection.2.2}}
\@writefile{thm}{\contentsline {remark}{{Remark}{2}{}}{5}{remark.2}}
\@writefile{thm}{\contentsline {remark}{{Remark}{3}{}}{5}{remark.3}}
\@writefile{toc}{\contentsline {section}{\numberline {3}Debye Temperature}{5}{section.3}}
