\select@language {english}
\contentsline {section}{\numberline {1}Introduction}{1}{section.1}
\contentsline {subsection}{\numberline {1.1}Linear Algebra Review}{2}{subsection.1.1}
\contentsline {section}{\numberline {2}General Forms of Linear Problems}{2}{section.2}
\contentsline {section}{\numberline {3}Geometry and Linear Algebra}{4}{section.3}
\contentsline {subsection}{\numberline {3.1}Extreme Points}{5}{subsection.3.1}
