\select@language {english}
\contentsline {section}{\numberline {1}Properties of Maximum Likelihood Estimation}{1}{section.1}
\contentsline {subsection}{\numberline {1.1}Example of Cramer-Rao}{2}{subsection.1.1}
\contentsline {section}{\numberline {2}Review}{3}{section.2}
\contentsline {section}{\numberline {3}Hypothesis Testing}{4}{section.3}
\contentsline {subsection}{\numberline {3.1}Intro to Hypothesis Testing}{4}{subsection.3.1}
\contentsline {paragraph}{Setup}{4}{section*.3}
\contentsline {paragraph}{Goal:}{4}{section*.4}
