\relax 
\providecommand\hyper@newdestlabel[2]{}
\providecommand\HyperFirstAtBeginDocument{\AtBeginDocument}
\HyperFirstAtBeginDocument{\ifx\hyper@anchor\@undefined
\global\let\oldcontentsline\contentsline
\gdef\contentsline#1#2#3#4{\oldcontentsline{#1}{#2}{#3}}
\global\let\oldnewlabel\newlabel
\gdef\newlabel#1#2{\newlabelxx{#1}#2}
\gdef\newlabelxx#1#2#3#4#5#6{\oldnewlabel{#1}{{#2}{#3}}}
\AtEndDocument{\ifx\hyper@anchor\@undefined
\let\contentsline\oldcontentsline
\let\newlabel\oldnewlabel
\fi}
\fi}
\global\let\hyper@last\relax 
\gdef\HyperFirstAtBeginDocument#1{#1}
\providecommand\HyField@AuxAddToFields[1]{}
\providecommand\HyField@AuxAddToCoFields[2]{}
\select@language{english}
\@writefile{toc}{\select@language{english}}
\@writefile{lof}{\select@language{english}}
\@writefile{lot}{\select@language{english}}
\@writefile{toc}{\contentsline {section}{\numberline {1}Properties of Maximum Likelihood Estimation}{1}{section.1}}
\@writefile{toc}{\contentsline {subsection}{\numberline {1.1}Example of Cramer-Rao}{2}{subsection.1.1}}
\@writefile{toc}{\contentsline {section}{\numberline {2}Review}{3}{section.2}}
\@writefile{toc}{\contentsline {section}{\numberline {3}Hypothesis Testing}{4}{section.3}}
\@writefile{toc}{\contentsline {subsection}{\numberline {3.1}Intro to Hypothesis Testing}{4}{subsection.3.1}}
\@writefile{toc}{\contentsline {paragraph}{Setup}{4}{section*.3}}
\@writefile{toc}{\contentsline {paragraph}{Goal:}{4}{section*.4}}
\@writefile{lot}{\contentsline {table}{\numberline {1}{\ignorespaces Outcomes\relax }}{5}{table.caption.5}}
