\relax 
\providecommand\hyper@newdestlabel[2]{}
\providecommand\HyperFirstAtBeginDocument{\AtBeginDocument}
\HyperFirstAtBeginDocument{\ifx\hyper@anchor\@undefined
\global\let\oldcontentsline\contentsline
\gdef\contentsline#1#2#3#4{\oldcontentsline{#1}{#2}{#3}}
\global\let\oldnewlabel\newlabel
\gdef\newlabel#1#2{\newlabelxx{#1}#2}
\gdef\newlabelxx#1#2#3#4#5#6{\oldnewlabel{#1}{{#2}{#3}}}
\AtEndDocument{\ifx\hyper@anchor\@undefined
\let\contentsline\oldcontentsline
\let\newlabel\oldnewlabel
\fi}
\fi}
\global\let\hyper@last\relax 
\gdef\HyperFirstAtBeginDocument#1{#1}
\providecommand\HyField@AuxAddToFields[1]{}
\providecommand\HyField@AuxAddToCoFields[2]{}
\select@language{english}
\@writefile{toc}{\select@language{english}}
\@writefile{lof}{\select@language{english}}
\@writefile{lot}{\select@language{english}}
\@writefile{thm}{\contentsline {exercise}{{Exercise}{9.{1}}{Far-field approximation 1}}{1}{exercise.9.1}}
\@writefile{thm}{\contentsline {solution}{{Solution}{1}{}}{1}{solution.1}}
\@writefile{thm}{\contentsline {exercise}{{Exercise}{9.{2}}{Far-field approximation 2}}{1}{exercise.9.2}}
\@writefile{thm}{\contentsline {solution}{{Solution}{2}{}}{2}{solution.2}}
\@writefile{thm}{\contentsline {exercise}{{Exercise}{9.{3}}{Practice with retarded time-dependent parameters}}{2}{exercise.9.3}}
\@writefile{thm}{\contentsline {solution}{{Solution}{3}{}}{2}{solution.3}}
\@writefile{thm}{\contentsline {exercise}{{Exercise}{9.{4}}{Griffiths 5.7}}{2}{exercise.9.4}}
\@writefile{thm}{\contentsline {solution}{{Solution}{4}{}}{3}{solution.4}}
\@writefile{thm}{\contentsline {exercise}{{Exercise}{9.{5}}{Moving Point Charge}}{3}{exercise.9.5}}
\@writefile{thm}{\contentsline {solution}{{Solution}{5}{}}{3}{solution.5}}
\@writefile{lof}{\contentsline {figure}{\numberline {1}{\ignorespaces The equations for E and B\relax }}{3}{figure.caption.7}}
