\relax 
\@writefile{toc}{\contentsline {section}{\numberline {1}Objectives}{1}}
\@writefile{toc}{\contentsline {section}{\numberline {2}Background \& Experiment Setup}{1}}
\newlabel{background}{{2}{1}}
\@writefile{toc}{\contentsline {subsection}{\numberline {2.1}Gamma Ray Detection}{1}}
\@writefile{lof}{\contentsline {figure}{\numberline {1}{\ignorespaces Energy band visualization of an inorganic scintillating material. }}{2}}
\newlabel{scint}{{1}{2}}
\@writefile{lof}{\contentsline {figure}{\numberline {2}{\ignorespaces The gamma detection process, involving a scintillator, a PMT, and a multichannel analyzer at the end of it.}}{2}}
\newlabel{PMTs}{{2}{2}}
\@writefile{toc}{\contentsline {subsection}{\numberline {2.2}Gamma Ray Peak Origins}{3}}
\newlabel{eq:Compton}{{1}{3}}
\newlabel{eq:comp_elec}{{2}{3}}
\newlabel{eq:limit}{{3}{4}}
\@writefile{toc}{\contentsline {section}{\numberline {3}Experimental Procedures}{5}}
\@writefile{toc}{\contentsline {section}{\numberline {4}Data Analysis}{5}}
\@writefile{toc}{\contentsline {subsection}{\numberline {4.1}Measured Spectra}{5}}
\@writefile{lof}{\contentsline {figure}{\numberline {3}{\ignorespaces Gamma ray spectrum of the isotope $^{137}Cs$. }}{6}}
\newlabel{Cs137_gamma}{{3}{6}}
\@writefile{lof}{\contentsline {figure}{\numberline {4}{\ignorespaces Gamma ray spectrum of the isotope $^{60}Co$. }}{6}}
\newlabel{Co60_gamma}{{4}{6}}
\@writefile{lof}{\contentsline {figure}{\numberline {5}{\ignorespaces Gamma ray spectrum of the isotope $^{57}Co$. }}{7}}
\newlabel{Co57_gamma}{{5}{7}}
\@writefile{toc}{\contentsline {section}{\numberline {5}Results and Conclusions}{7}}
\@writefile{lof}{\contentsline {figure}{\numberline {6}{\ignorespaces Gamma ray spectrum of the isotope $^{109}Cd$. }}{8}}
\newlabel{Cd109_gamma}{{6}{8}}
\@writefile{lof}{\contentsline {figure}{\numberline {7}{\ignorespaces Gamma ray spectrum of the isotope $^{22}Na$. }}{8}}
\newlabel{Na22_gamma}{{7}{8}}
\@writefile{lof}{\contentsline {figure}{\numberline {8}{\ignorespaces Gamma ray spectrum of the isotope $^{60}Co$, observing a sum peak.}}{9}}
\newlabel{cosum_gamma}{{8}{9}}
\@writefile{lof}{\contentsline {figure}{\numberline {9}{\ignorespaces Gamma ray spectrum of the isotope $^{22}Na$, observing a sum peak. }}{9}}
\newlabel{nasum_gamma}{{9}{9}}
