\BOOKMARK [1][-]{section.1}{}{}% 1
\BOOKMARK [2][-]{subsection.1.1}{How to get the T-dist?}{section.1}% 2
\BOOKMARK [1][-]{section.2}{Central Limit Theorem}{}% 3
\BOOKMARK [1][-]{section.3}{Estimation}{}% 4
\BOOKMARK [2][-]{subsubsection.3.0.1}{Steps}{section.3}% 5
\BOOKMARK [2][-]{subsection.3.1}{Properties of Estimators}{section.3}% 6
