\select@language {english}
\contentsline {section}{\numberline {1}}{1}{section.1}
\contentsline {subsection}{\numberline {1.1}How to get the T-dist?}{2}{subsection.1.1}
\contentsline {section}{\numberline {2}Central Limit Theorem}{3}{section.2}
\contentsline {section}{\numberline {3}Estimation}{3}{section.3}
\contentsline {subsubsection}{\numberline {3.0.1}Steps}{3}{subsubsection.3.0.1}
\contentsline {subsection}{\numberline {3.1}Properties of Estimators}{4}{subsection.3.1}
\contentsline {paragraph}{To Do}{4}{section*.2}
