\relax 
\providecommand\hyper@newdestlabel[2]{}
\providecommand\HyperFirstAtBeginDocument{\AtBeginDocument}
\HyperFirstAtBeginDocument{\ifx\hyper@anchor\@undefined
\global\let\oldcontentsline\contentsline
\gdef\contentsline#1#2#3#4{\oldcontentsline{#1}{#2}{#3}}
\global\let\oldnewlabel\newlabel
\gdef\newlabel#1#2{\newlabelxx{#1}#2}
\gdef\newlabelxx#1#2#3#4#5#6{\oldnewlabel{#1}{{#2}{#3}}}
\AtEndDocument{\ifx\hyper@anchor\@undefined
\let\contentsline\oldcontentsline
\let\newlabel\oldnewlabel
\fi}
\fi}
\global\let\hyper@last\relax 
\gdef\HyperFirstAtBeginDocument#1{#1}
\providecommand\HyField@AuxAddToFields[1]{}
\providecommand\HyField@AuxAddToCoFields[2]{}
\select@language{english}
\@writefile{toc}{\select@language{english}}
\@writefile{lof}{\select@language{english}}
\@writefile{lot}{\select@language{english}}
\@writefile{toc}{\contentsline {section}{\numberline {1}}{1}{section.1}}
\@writefile{toc}{\contentsline {subsection}{\numberline {1.1}How to get the T-dist?}{2}{subsection.1.1}}
\@writefile{toc}{\contentsline {section}{\numberline {2}Central Limit Theorem}{3}{section.2}}
\@writefile{toc}{\contentsline {section}{\numberline {3}Estimation}{3}{section.3}}
\@writefile{toc}{\contentsline {subsubsection}{\numberline {3.0.1}Steps}{3}{subsubsection.3.0.1}}
\@writefile{toc}{\contentsline {subsection}{\numberline {3.1}Properties of Estimators}{4}{subsection.3.1}}
\@writefile{toc}{\contentsline {paragraph}{To Do}{4}{section*.2}}
