\relax 
\providecommand\hyper@newdestlabel[2]{}
\providecommand\HyperFirstAtBeginDocument{\AtBeginDocument}
\HyperFirstAtBeginDocument{\ifx\hyper@anchor\@undefined
\global\let\oldcontentsline\contentsline
\gdef\contentsline#1#2#3#4{\oldcontentsline{#1}{#2}{#3}}
\global\let\oldnewlabel\newlabel
\gdef\newlabel#1#2{\newlabelxx{#1}#2}
\gdef\newlabelxx#1#2#3#4#5#6{\oldnewlabel{#1}{{#2}{#3}}}
\AtEndDocument{\ifx\hyper@anchor\@undefined
\let\contentsline\oldcontentsline
\let\newlabel\oldnewlabel
\fi}
\fi}
\global\let\hyper@last\relax 
\gdef\HyperFirstAtBeginDocument#1{#1}
\providecommand\HyField@AuxAddToFields[1]{}
\providecommand\HyField@AuxAddToCoFields[2]{}
\select@language{english}
\@writefile{toc}{\select@language{english}}
\@writefile{lof}{\select@language{english}}
\@writefile{lot}{\select@language{english}}
\@writefile{thm}{\contentsline {exercise}{{Exercise}{10.{1}}{Griffiths 11.1}}{1}{exercise.10.1}}
\@writefile{thm}{\contentsline {solution}{{Solution}{1}{}}{1}{solution.1}}
\global\def\markisolutioniv{\ensuremath {\blacksquare }}
\@writefile{thm}{\contentsline {exercise}{{Exercise}{10.{2}}{Griffiths 11.3}}{2}{exercise.10.2}}
\@writefile{thm}{\contentsline {solution}{{Solution}{2}{}}{2}{solution.2}}
\global\def\markiisolutioniv{\ensuremath {\blacksquare }}
\@writefile{thm}{\contentsline {exercise}{{Exercise}{10.{3}}{Griffiths 11.10}}{2}{exercise.10.3}}
\@writefile{thm}{\contentsline {solution}{{Solution}{3}{}}{2}{solution.3}}
\@writefile{thm}{\contentsline {exercise}{{Exercise}{10.{4}}{Summarize Chapter 10 Topics}}{3}{exercise.10.4}}
\@writefile{thm}{\contentsline {solution}{{Solution}{4}{}}{3}{solution.4}}
\@writefile{thm}{\contentsline {exercise}{{Exercise}{10.{5}}{Summarize Chapter 11 Topics}}{3}{exercise.10.5}}
\@writefile{thm}{\contentsline {solution}{{Solution}{5}{}}{3}{solution.5}}
