\BOOKMARK [1][-]{section.1}{Bogolyubov Transformations - Cont'd}{}% 1
\BOOKMARK [2][-]{subsection.1.1}{Quantum Bosonic Chain}{section.1}% 2
\BOOKMARK [1][-]{section.2}{New Chapter - Algebra of Angular Momenta}{}% 3
\BOOKMARK [2][-]{subsection.2.1}{Several Particles}{section.2}% 4
