\select@language {english}
\contentsline {section}{\numberline {1}Bogolyubov Transformations - Cont'd}{1}{section.1}
\contentsline {subsection}{\numberline {1.1}Quantum Bosonic Chain}{1}{subsection.1.1}
\contentsline {section}{\numberline {2}New Chapter - Algebra of Angular Momenta}{5}{section.2}
\contentsline {subsection}{\numberline {2.1}Several Particles}{6}{subsection.2.1}
