\relax 
\providecommand\hyper@newdestlabel[2]{}
\providecommand\HyperFirstAtBeginDocument{\AtBeginDocument}
\HyperFirstAtBeginDocument{\ifx\hyper@anchor\@undefined
\global\let\oldcontentsline\contentsline
\gdef\contentsline#1#2#3#4{\oldcontentsline{#1}{#2}{#3}}
\global\let\oldnewlabel\newlabel
\gdef\newlabel#1#2{\newlabelxx{#1}#2}
\gdef\newlabelxx#1#2#3#4#5#6{\oldnewlabel{#1}{{#2}{#3}}}
\AtEndDocument{\ifx\hyper@anchor\@undefined
\let\contentsline\oldcontentsline
\let\newlabel\oldnewlabel
\fi}
\fi}
\global\let\hyper@last\relax 
\gdef\HyperFirstAtBeginDocument#1{#1}
\providecommand\HyField@AuxAddToFields[1]{}
\providecommand\HyField@AuxAddToCoFields[2]{}
\select@language{english}
\@writefile{toc}{\select@language{english}}
\@writefile{lof}{\select@language{english}}
\@writefile{lot}{\select@language{english}}
\@writefile{thm}{\contentsline {exercise}{{Exercise}{3.{1}}{Heisenberg's principle for orbital momentum components}}{1}{exercise.3.1}}
\@writefile{thm}{\contentsline {solution}{{Solution}{1}{}}{1}{solution.1}}
\global\def\markisolutioni{\ensuremath {\blacksquare }}
\@writefile{thm}{\contentsline {exercise}{{Exercise}{3.{2}}{Angular Momentum}}{1}{exercise.3.2}}
\@writefile{thm}{\contentsline {solution}{{Solution}{2}{}}{1}{solution.2}}
\global\def\markiisolutioni{\ensuremath {\blacksquare }}
\@writefile{thm}{\contentsline {exercise}{{Exercise}{3.{3}}{Unimodular and Unitary Matrices}}{1}{exercise.3.3}}
\@writefile{thm}{\contentsline {exercise}{{Exercise}{3.{4}}{Switching of Basis}}{2}{exercise.3.4}}
\@writefile{thm}{\contentsline {solution}{{Solution}{3}{}}{2}{solution.3}}
\@writefile{thm}{\contentsline {exercise}{{Exercise}{3.{5}}{Equivalence of two different sets of J-matrices}}{2}{exercise.3.5}}
\@writefile{thm}{\contentsline {solution}{{Solution}{4}{}}{2}{solution.4}}
