\BOOKMARK [1][-]{section.1}{Introduction}{}% 1
\BOOKMARK [1][-]{section.2}{Symmetries}{}% 2
\BOOKMARK [2][-]{subsection.2.1}{Three Dimensions}{section.2}% 3
\BOOKMARK [2][-]{subsection.2.2}{Reciprocal Lattice Vectors}{section.2}% 4
