\select@language {english}
\contentsline {section}{\numberline {1}Introduction}{1}{section.1}
\contentsline {section}{\numberline {2}Symmetries}{1}{section.2}
\contentsline {subsection}{\numberline {2.1}Three Dimensions}{2}{subsection.2.1}
\contentsline {subsection}{\numberline {2.2}Reciprocal Lattice Vectors}{3}{subsection.2.2}
