\relax 
\providecommand\hyper@newdestlabel[2]{}
\providecommand\HyperFirstAtBeginDocument{\AtBeginDocument}
\HyperFirstAtBeginDocument{\ifx\hyper@anchor\@undefined
\global\let\oldcontentsline\contentsline
\gdef\contentsline#1#2#3#4{\oldcontentsline{#1}{#2}{#3}}
\global\let\oldnewlabel\newlabel
\gdef\newlabel#1#2{\newlabelxx{#1}#2}
\gdef\newlabelxx#1#2#3#4#5#6{\oldnewlabel{#1}{{#2}{#3}}}
\AtEndDocument{\ifx\hyper@anchor\@undefined
\let\contentsline\oldcontentsline
\let\newlabel\oldnewlabel
\fi}
\fi}
\global\let\hyper@last\relax 
\gdef\HyperFirstAtBeginDocument#1{#1}
\providecommand\HyField@AuxAddToFields[1]{}
\providecommand\HyField@AuxAddToCoFields[2]{}
\select@language{english}
\@writefile{toc}{\select@language{english}}
\@writefile{lof}{\select@language{english}}
\@writefile{lot}{\select@language{english}}
\@writefile{toc}{\contentsline {section}{\numberline {1}Introduction}{1}{section.1}}
\@writefile{toc}{\contentsline {subsection}{\numberline {1.1}Algebra of Dirac Matrices}{2}{subsection.1.1}}
\@writefile{toc}{\contentsline {section}{\numberline {2}Review}{4}{section.2}}
\newlabel{eq:1}{{26}{4}{Review}{equation.2.26}{}}
\newlabel{eq:1@cref}{{[equation][26][]26}{4}}
\newlabel{eq:2}{{28}{4}{Review}{equation.2.28}{}}
\newlabel{eq:2@cref}{{[equation][28][]28}{4}}
\@writefile{thm}{\contentsline {remark}{{Remark}{1}{502}}{4}{remark.1}}
\@writefile{toc}{\contentsline {subsection}{\numberline {2.1}Lorentz Boosts}{5}{subsection.2.1}}
\@writefile{thm}{\contentsline {remark}{{Remark}{2}{Solid State Physics}}{7}{remark.2}}
\@writefile{thm}{\contentsline {remark}{{Remark}{3}{}}{7}{remark.3}}
