\select@language {english}
\contentsline {section}{\numberline {1}Introduction}{1}{section.1}
\contentsline {subsection}{\numberline {1.1}Algebra of Dirac Matrices}{2}{subsection.1.1}
\contentsline {section}{\numberline {2}Review}{4}{section.2}
\contentsline {subsection}{\numberline {2.1}Lorentz Boosts}{5}{subsection.2.1}
