h		u_k		y_k-u_k		(y_k-u_k)/h(h**2 for taylor)		
0.100000	0.500000	0.000000	0.000000
0.100000	0.626281	0.000035	0.000345
0.100000	0.755474	0.000081	0.000811
0.100000	0.888091	0.000144	0.001441
0.100000	1.024770	0.000230	0.002300
0.100000	1.166319	0.000348	0.003480
0.100000	1.313774	0.000512	0.005121
0.100000	1.468487	0.000744	0.007436
0.100000	1.632257	0.001076	0.010761
0.100000	1.807527	0.001564	0.015639
