h		u_k		y_k-u_k		(y_k-u_k)/h(h**2 for taylor)		
0.050000	0.500000	0.000000	0.000000
0.050000	0.562816	0.000004	0.000082
0.050000	0.626307	0.000009	0.000178
0.050000	0.690526	0.000014	0.000288
0.050000	0.755535	0.000021	0.000417
0.050000	0.821400	0.000028	0.000567
0.050000	0.888198	0.000037	0.000742
0.050000	0.956013	0.000047	0.000947
0.050000	1.024941	0.000059	0.001186
0.050000	1.095088	0.000073	0.001466
0.050000	1.166577	0.000090	0.001797
0.050000	1.239546	0.000109	0.002187
0.050000	1.314153	0.000132	0.002648
0.050000	1.390581	0.000160	0.003197
0.050000	1.469038	0.000193	0.003853
0.050000	1.549768	0.000232	0.004639
0.050000	1.633054	0.000279	0.005588
0.050000	1.719228	0.000337	0.006739
0.050000	1.808684	0.000407	0.008144
0.050000	1.901887	0.000494	0.009871
