h		u_k		y_k-u_k		(y_k-u_k)/h(h**2 for taylor)		
0.025000	0.500000	0.000000	0.000000
0.025000	0.531329	0.000000	0.000020
0.025000	0.562820	0.000000	0.000041
0.025000	0.594480	0.000000	0.000065
0.025000	0.626316	0.000000	0.000091
0.025000	0.658333	0.000000	0.000119
0.025000	0.690540	0.000000	0.000149
0.025000	0.722945	0.000000	0.000182
0.025000	0.755555	0.000000	0.000219
0.025000	0.788380	0.000000	0.000259
0.025000	0.821428	0.000000	0.000302
0.025000	0.854710	0.000000	0.000350
0.025000	0.888235	0.000000	0.000401
0.025000	0.922015	0.000000	0.000458
0.025000	0.956060	0.000000	0.000520
0.025000	0.990384	0.000000	0.000588
0.025000	1.025000	0.000000	0.000663
0.025000	1.059920	0.000000	0.000745
0.025000	1.095161	0.000001	0.000834
0.025000	1.130737	0.000001	0.000933
0.025000	1.166666	0.000001	0.001041
0.025000	1.202965	0.000001	0.001161
0.025000	1.239654	0.000001	0.001292
0.025000	1.276753	0.000001	0.001437
0.025000	1.314285	0.000001	0.001597
0.025000	1.352272	0.000001	0.001774
0.025000	1.390740	0.000001	0.001970
0.025000	1.429716	0.000001	0.002187
0.025000	1.469229	0.000002	0.002428
0.025000	1.509312	0.000002	0.002695
0.025000	1.549998	0.000002	0.002994
0.025000	1.591324	0.000002	0.003326
0.025000	1.633331	0.000002	0.003697
0.025000	1.676061	0.000003	0.004113
0.025000	1.719562	0.000003	0.004579
0.025000	1.763886	0.000003	0.005102
0.025000	1.809087	0.000004	0.005691
0.025000	1.855229	0.000004	0.006356
0.025000	1.902377	0.000004	0.007108
0.025000	1.950605	0.000005	0.007961
