\select@language {english}
\contentsline {section}{\numberline {1}Number of Solutions}{1}{section.1}
\contentsline {subsection}{\numberline {1.1}Number of Solutions}{1}{subsection.1.1}
\contentsline {section}{\numberline {2}Second Lecture of Week}{3}{section.2}
\contentsline {subsection}{\numberline {2.1}Review}{3}{subsection.2.1}
\contentsline {subsection}{\numberline {2.2}Theorem}{4}{subsection.2.2}
