\relax 
\providecommand\hyper@newdestlabel[2]{}
\providecommand\HyperFirstAtBeginDocument{\AtBeginDocument}
\HyperFirstAtBeginDocument{\ifx\hyper@anchor\@undefined
\global\let\oldcontentsline\contentsline
\gdef\contentsline#1#2#3#4{\oldcontentsline{#1}{#2}{#3}}
\global\let\oldnewlabel\newlabel
\gdef\newlabel#1#2{\newlabelxx{#1}#2}
\gdef\newlabelxx#1#2#3#4#5#6{\oldnewlabel{#1}{{#2}{#3}}}
\AtEndDocument{\ifx\hyper@anchor\@undefined
\let\contentsline\oldcontentsline
\let\newlabel\oldnewlabel
\fi}
\fi}
\global\let\hyper@last\relax 
\gdef\HyperFirstAtBeginDocument#1{#1}
\providecommand\HyField@AuxAddToFields[1]{}
\providecommand\HyField@AuxAddToCoFields[2]{}
\select@language{english}
\@writefile{toc}{\select@language{english}}
\@writefile{lof}{\select@language{english}}
\@writefile{lot}{\select@language{english}}
\@writefile{toc}{\contentsline {section}{\numberline {1}Number of Solutions}{1}{section.1}}
\@writefile{toc}{\contentsline {subsection}{\numberline {1.1}Number of Solutions}{1}{subsection.1.1}}
\@writefile{thm}{\contentsline {corollary}{{Corollary}{1.{0}.{1}}{}}{1}{corollary.1.0.1}}
\@writefile{thm}{\contentsline {proof}{{Proof}{1}{}}{1}{proof.1}}
\@writefile{thm}{\contentsline {remark}{{Remark}{1}{}}{1}{remark.1}}
\@writefile{thm}{\contentsline {remark}{{Remark}{2}{}}{2}{remark.2}}
\@writefile{thm}{\contentsline {theorem}{{Theorem}{1.{1}}{}}{2}{theorem.1.1}}
\@writefile{thm}{\contentsline {definition}{{Definition}{1.{1}}{}}{2}{definition.1.1}}
\@writefile{thm}{\contentsline {example}{{Example}{1.{1}}{}}{2}{example.1.1}}
\@writefile{toc}{\contentsline {section}{\numberline {2}Second Lecture of Week}{3}{section.2}}
\@writefile{toc}{\contentsline {subsection}{\numberline {2.1}Review}{3}{subsection.2.1}}
\@writefile{thm}{\contentsline {definition}{{Definition}{2.{1}}{}}{3}{definition.2.1}}
\@writefile{thm}{\contentsline {remark}{{Remark}{3}{}}{3}{remark.3}}
\@writefile{thm}{\contentsline {example}{{Example}{2.{1}}{}}{3}{example.2.1}}
\@writefile{toc}{\contentsline {subsection}{\numberline {2.2}Theorem}{4}{subsection.2.2}}
\@writefile{thm}{\contentsline {theorem}{{Theorem}{2.{1}}{}}{4}{theorem.2.1}}
