\relax 
\select@language{english}
\@writefile{toc}{\select@language{english}}
\@writefile{lof}{\select@language{english}}
\@writefile{lot}{\select@language{english}}
\newlabel{eq:flux}{{2}{1}}
\newlabel{eq:flux@cref}{{[equation][2][]2}{1}}
\newlabel{eq:MF}{{3}{1}}
\newlabel{eq:MF@cref}{{[equation][3][]3}{1}}
\@writefile{lof}{\contentsline {figure}{\numberline {1}{\ignorespaces A wire with a time-dependent current running through it.\relax }}{2}}
\providecommand*\caption@xref[2]{\@setref\relax\@undefined{#1}}
\newlabel{fig:current}{{1}{2}}
\newlabel{fig:current@cref}{{[figure][1][]1}{2}}
