\defcounter {refsection}{0}\relax 
\beamer@endinputifotherversion {3.36pt}
\defcounter {refsection}{0}\relax 
\headcommand {\sectionentry {1}{Background}{1}{Background}{0}}
\defcounter {refsection}{0}\relax 
\headcommand {\beamer@sectionpages {1}{0}}
\defcounter {refsection}{0}\relax 
\headcommand {\beamer@subsectionpages {1}{0}}
\defcounter {refsection}{0}\relax 
\headcommand {\slideentry {1}{0}{1}{1/1}{}{0}}
\defcounter {refsection}{0}\relax 
\headcommand {\beamer@framepages {1}{1}}
\defcounter {refsection}{0}\relax 
\headcommand {\slideentry {1}{0}{2}{2/2}{}{0}}
\defcounter {refsection}{0}\relax 
\headcommand {\beamer@framepages {2}{2}}
\headcommand {\beamer@partpages {1}{2}}
\headcommand {\beamer@subsectionpages {1}{2}}
\headcommand {\beamer@sectionpages {1}{2}}
\headcommand {\beamer@documentpages {2}}
\headcommand {\def \inserttotalframenumber {2}}
