\relax 
\providecommand\hyper@newdestlabel[2]{}
\providecommand\HyperFirstAtBeginDocument{\AtBeginDocument}
\HyperFirstAtBeginDocument{\ifx\hyper@anchor\@undefined
\global\let\oldcontentsline\contentsline
\gdef\contentsline#1#2#3#4{\oldcontentsline{#1}{#2}{#3}}
\global\let\oldnewlabel\newlabel
\gdef\newlabel#1#2{\newlabelxx{#1}#2}
\gdef\newlabelxx#1#2#3#4#5#6{\oldnewlabel{#1}{{#2}{#3}}}
\AtEndDocument{\ifx\hyper@anchor\@undefined
\let\contentsline\oldcontentsline
\let\newlabel\oldnewlabel
\fi}
\fi}
\global\let\hyper@last\relax 
\gdef\HyperFirstAtBeginDocument#1{#1}
\providecommand\HyField@AuxAddToFields[1]{}
\providecommand\HyField@AuxAddToCoFields[2]{}
\@writefile{toc}{\contentsline {section}{\numberline {1}Interview Protocol}{1}{section.1}}
\@writefile{toc}{\contentsline {subsection}{\numberline {1.1}Consent}{1}{subsection.1.1}}
\@writefile{toc}{\contentsline {subsection}{\numberline {1.2}Personal Background}{1}{subsection.1.2}}
\@writefile{toc}{\contentsline {subsection}{\numberline {1.3}Identifying Interviewee Background for Ethics Discussion}{1}{subsection.1.3}}
\@writefile{toc}{\contentsline {subsection}{\numberline {1.4}Ethics of Euthanasia}{1}{subsection.1.4}}
\@writefile{toc}{\contentsline {subsection}{\numberline {1.5}Said Yes to Allowing Euthanasia}{1}{subsection.1.5}}
\@writefile{toc}{\contentsline {subsection}{\numberline {1.6}Said No to Allowing Euthanasia}{1}{subsection.1.6}}
\@writefile{toc}{\contentsline {section}{\numberline {2}Oral Consent Document}{2}{section.2}}
