\relax 
\select@language{english}
\@writefile{toc}{\select@language{english}}
\@writefile{lof}{\select@language{english}}
\@writefile{lot}{\select@language{english}}
\@writefile{toc}{\contentsline {section}{\numberline {1}Statistical Approaches}{1}}
\newlabel{sec:stat}{{1}{1}}
\@writefile{toc}{\contentsline {subsection}{\numberline {1.1}Detecting Outliers in a Univariate Normal Distribution}{1}}
\newlabel{sec:univariate_gauss}{{1.1}{1}}
\newlabel{eq:gaussian}{{1}{1}}
\@writefile{lot}{\contentsline {table}{\numberline {1}{\ignorespaces Univariate Gaussian Distribution values\relax }}{1}}
\providecommand*\caption@xref[2]{\@setref\relax\@undefined{#1}}
\newlabel{tab:examples}{{1}{1}}
\newlabel{eq:outlier_uni}{{2}{1}}
\@writefile{toc}{\contentsline {subsection}{\numberline {1.2}Outliers in a Multivariate Normal Distribution}{2}}
\newlabel{sec:multivar_gaussian}{{1.2}{2}}
\newlabel{covariance_matrix_example}{{3}{2}}
\newlabel{eq:malahanobis}{{4}{2}}
\@writefile{toc}{\contentsline {subsubsection}{\numberline {1.2.1}The Mixture Model Approach for Anomaly Detection}{2}}
\newlabel{eq:distrib}{{5}{3}}
\newlabel{eq:likelihood}{{6}{3}}
\@writefile{toc}{\contentsline {section}{\numberline {2}Proximity-Based Outlier Detection}{3}}
\newlabel{sec:proximity}{{2}{3}}
\@writefile{toc}{\contentsline {section}{\numberline {3}Density-Based Outlier Detection}{4}}
\newlabel{sec:density}{{3}{4}}
\@writefile{lol}{\contentsline {lstlisting}{\numberline {1}Relative density outlier score algorithm}{4}}
\@writefile{toc}{\contentsline {subsubsection}{\numberline {3.0.1}Strengths and Weaknesses}{4}}
\@writefile{toc}{\contentsline {section}{\numberline {4}Clustering-Based Techniques}{5}}
\newlabel{sec:clust}{{4}{5}}
