\relax 
\@writefile{toc}{\contentsline {section}{\numberline {1}Objectives}{1}}
\@writefile{toc}{\contentsline {section}{\numberline {2}Background \& Experiment Setup}{1}}
\newlabel{background}{{2}{1}}
\@writefile{toc}{\contentsline {subsection}{\numberline {2.1}Gamma Ray Detection}{1}}
\@writefile{lof}{\contentsline {figure}{\numberline {1}{\ignorespaces Energy band visualization of an inorganic scintillating material. }}{2}}
\newlabel{scint}{{1}{2}}
\@writefile{lof}{\contentsline {figure}{\numberline {2}{\ignorespaces The gamma detection process, involving a scintillator, a PMT, and a multichannel analyzer at the end of it.}}{2}}
\newlabel{PMTs}{{2}{2}}
\@writefile{toc}{\contentsline {section}{\numberline {3}Experimental Procedures}{3}}
\@writefile{toc}{\contentsline {section}{\numberline {4}Data Analysis}{3}}
\@writefile{toc}{\contentsline {subsection}{\numberline {4.1}Effect of Gain on Resolution}{3}}
\@writefile{toc}{\contentsline {subsection}{\numberline {4.2}Effect of Incident Gamma Energy on Resolution}{3}}
\@writefile{lof}{\contentsline {figure}{\numberline {3}{\ignorespaces Gamma ray spectrum of the isotope $^{137}Cs$. }}{4}}
\newlabel{Cs_Coarse_32}{{3}{4}}
\newlabel{Gain_vs_Res_Table}{{4.1}{4}}
\@writefile{lot}{\contentsline {table}{\numberline {1}{\ignorespaces $^{60}Co$'s two main photopeaks at differing gains}}{4}}
\@writefile{lof}{\contentsline {figure}{\numberline {4}{\ignorespaces Gamma ray spectrum of the isotope $^{60}Co$ at a voltage gain of 6. }}{4}}
\newlabel{Co60_6}{{4}{4}}
\@writefile{lof}{\contentsline {figure}{\numberline {5}{\ignorespaces Gamma ray spectrum of the isotope $^{60}Co$ at a voltage gain of 12. }}{5}}
\newlabel{Co60_12}{{5}{5}}
\@writefile{lof}{\contentsline {figure}{\numberline {6}{\ignorespaces Gamma ray spectrum of the isotope $^{60}Co$ at a voltage gain of 18. }}{5}}
\newlabel{Co60_18}{{6}{5}}
\newlabel{Gamma_vs_Res_Table}{{4.2}{5}}
\@writefile{lot}{\contentsline {table}{\numberline {2}{\ignorespaces Gamma Peaks vs Resolution}}{5}}
\@writefile{lof}{\contentsline {figure}{\numberline {7}{\ignorespaces Gamma ray spectrum of the isotope $^{54}Mn$. }}{6}}
\newlabel{Mn}{{7}{6}}
\@writefile{lof}{\contentsline {figure}{\numberline {8}{\ignorespaces Gamma ray spectrum of the isotope $^{60}Co$. }}{6}}
\newlabel{Co60}{{8}{6}}
\@writefile{lof}{\contentsline {figure}{\numberline {9}{\ignorespaces Gamma ray spectrum of the isotope $^{57}Co$. }}{7}}
\newlabel{Co57}{{9}{7}}
\@writefile{lof}{\contentsline {figure}{\numberline {10}{\ignorespaces Gamma ray spectrum of the isotope $^{22}Na$. }}{7}}
\newlabel{Na22}{{10}{7}}
\@writefile{lof}{\contentsline {figure}{\numberline {11}{\ignorespaces Gamma ray spectrum of the isotope $^{109}Cd$. }}{8}}
\newlabel{Cd109}{{11}{8}}
\@writefile{lof}{\contentsline {figure}{\numberline {12}{\ignorespaces Gamma ray spectrum of the isotope $^{137}Cs$. }}{8}}
\newlabel{Cs137}{{12}{8}}
\bibstyle{unsrt}
\bibdata{sample}
\@writefile{lof}{\contentsline {figure}{\numberline {13}{\ignorespaces A fit of the data points presented in Table 4.2\hbox {}. }}{9}}
\newlabel{linear_fit}{{13}{9}}
\@writefile{toc}{\contentsline {section}{\numberline {5}Results and Conclusions}{9}}
