\select@language {english}
\contentsline {section}{\numberline {1}Second Quantization}{1}{section.1}
\contentsline {section}{\numberline {2}Lecture Two}{3}{section.2}
\contentsline {subsection}{\numberline {2.1}Review of Lecture One}{3}{subsection.2.1}
\contentsline {subsection}{\numberline {2.2}Fermions}{4}{subsection.2.2}
\contentsline {paragraph}{Harmonic Oscillator}{5}{section*.2}
