\relax 
\providecommand\hyper@newdestlabel[2]{}
\providecommand\HyperFirstAtBeginDocument{\AtBeginDocument}
\HyperFirstAtBeginDocument{\ifx\hyper@anchor\@undefined
\global\let\oldcontentsline\contentsline
\gdef\contentsline#1#2#3#4{\oldcontentsline{#1}{#2}{#3}}
\global\let\oldnewlabel\newlabel
\gdef\newlabel#1#2{\newlabelxx{#1}#2}
\gdef\newlabelxx#1#2#3#4#5#6{\oldnewlabel{#1}{{#2}{#3}}}
\AtEndDocument{\ifx\hyper@anchor\@undefined
\let\contentsline\oldcontentsline
\let\newlabel\oldnewlabel
\fi}
\fi}
\global\let\hyper@last\relax 
\gdef\HyperFirstAtBeginDocument#1{#1}
\providecommand\HyField@AuxAddToFields[1]{}
\providecommand\HyField@AuxAddToCoFields[2]{}
\select@language{english}
\@writefile{toc}{\select@language{english}}
\@writefile{lof}{\select@language{english}}
\@writefile{lot}{\select@language{english}}
\@writefile{toc}{\contentsline {section}{\numberline {1}Introduction}{1}{section.1}}
\@writefile{toc}{\contentsline {subsection}{\numberline {1.1}Relativistic Particle}{2}{subsection.1.1}}
\@writefile{thm}{\contentsline {remark}{{Remark}{1}{}}{2}{remark.1}}
\@writefile{toc}{\contentsline {subsection}{\numberline {1.2}A Glance Back at Non-relativistic QM}{3}{subsection.1.2}}
\@writefile{toc}{\contentsline {subsection}{\numberline {1.3}Relativistic Mechanics}{4}{subsection.1.3}}
\@writefile{thm}{\contentsline {remark}{{Remark}{2}{}}{4}{remark.2}}
\@writefile{thm}{\contentsline {remark}{{Remark}{3}{}}{4}{remark.3}}
\@writefile{thm}{\contentsline {remark}{{Remark}{4}{}}{4}{remark.4}}
\@writefile{toc}{\contentsline {subsection}{\numberline {1.4}Multiparticle probabilistic interpretation}{5}{subsection.1.4}}
\@writefile{toc}{\contentsline {section}{\numberline {2}Least Action Principle}{5}{section.2}}
\@writefile{toc}{\contentsline {subsection}{\numberline {2.1}Stationary (slow) system}{5}{subsection.2.1}}
\@writefile{toc}{\contentsline {subsection}{\numberline {2.2}Non-stationary (relativistic) system}{6}{subsection.2.2}}
\@writefile{toc}{\contentsline {subsection}{\numberline {2.3}Real Scalar Field}{6}{subsection.2.3}}
\newlabel{Identity}{{27}{7}{Real Scalar Field}{equation.2.27}{}}
\newlabel{Identity@cref}{{[equation][27][]27}{7}}
\@writefile{thm}{\contentsline {remark}{{Remark}{5}{}}{8}{remark.5}}
