\relax 
\providecommand\hyper@newdestlabel[2]{}
\providecommand\HyperFirstAtBeginDocument{\AtBeginDocument}
\HyperFirstAtBeginDocument{\ifx\hyper@anchor\@undefined
\global\let\oldcontentsline\contentsline
\gdef\contentsline#1#2#3#4{\oldcontentsline{#1}{#2}{#3}}
\global\let\oldnewlabel\newlabel
\gdef\newlabel#1#2{\newlabelxx{#1}#2}
\gdef\newlabelxx#1#2#3#4#5#6{\oldnewlabel{#1}{{#2}{#3}}}
\AtEndDocument{\ifx\hyper@anchor\@undefined
\let\contentsline\oldcontentsline
\let\newlabel\oldnewlabel
\fi}
\fi}
\global\let\hyper@last\relax 
\gdef\HyperFirstAtBeginDocument#1{#1}
\providecommand\HyField@AuxAddToFields[1]{}
\providecommand\HyField@AuxAddToCoFields[2]{}
\select@language{english}
\@writefile{toc}{\select@language{english}}
\@writefile{lof}{\select@language{english}}
\@writefile{lot}{\select@language{english}}
\newlabel{eq:mst}{{4}{2}{}{equation.0.4}{}}
\newlabel{eq:mst@cref}{{[equation][4][]4}{2}}
\newlabel{eq:E}{{6}{3}{}{equation.0.6}{}}
\newlabel{eq:E@cref}{{[equation][6][]6}{3}}
\newlabel{eq:B}{{{Eq. 9.52}}{3}{}{AMS.3}{}}
\newlabel{eq:B@cref}{{[equation][2147483647][]{Eq. 9.52}}{3}}
\newlabel{Faraday}{{9}{4}{}{equation.0.9}{}}
\newlabel{Faraday@cref}{{[equation][9][]9}{4}}
\newlabel{Ampere}{{10}{4}{}{equation.0.10}{}}
\newlabel{Ampere@cref}{{[equation][10][]10}{4}}
\newlabel{eq:wav}{{11}{4}{}{equation.0.11}{}}
\newlabel{eq:wav@cref}{{[equation][11][]11}{4}}
