\BOOKMARK [1][-]{section.1}{Introduction}{}% 1
\BOOKMARK [1][-]{section.2}{Crystal Structures}{}% 2
\BOOKMARK [2][-]{subsection.2.1}{Cubic Lattices}{section.2}% 3
\BOOKMARK [2][-]{subsection.2.2}{Hexagonal Lattices}{section.2}% 4
\BOOKMARK [2][-]{subsection.2.3}{Crystal Lattice Planes}{section.2}% 5
\BOOKMARK [3][-]{subsubsection.2.3.1}{Diamond}{subsection.2.3}% 6
\BOOKMARK [3][-]{subsubsection.2.3.2}{Zincblende}{subsection.2.3}% 7
