\beamer@endinputifotherversion {3.36pt}
\headcommand {\slideentry {0}{0}{1}{1/1}{}{0}}
\headcommand {\beamer@framepages {1}{1}}
\headcommand {\slideentry {0}{0}{2}{2/2}{}{0}}
\headcommand {\beamer@framepages {2}{2}}
\headcommand {\sectionentry {1}{1D Green's Functions}{3}{1D Green's Functions}{0}}
\headcommand {\beamer@sectionpages {1}{2}}
\headcommand {\beamer@subsectionpages {1}{2}}
\headcommand {\beamer@subsectionentry {0}{1}{1}{3}{Motivation}}\headcommand {\beamer@subsectionpages {3}{2}}
\headcommand {\slideentry {1}{1}{1}{3/3}{Motivation}{0}}
\headcommand {\beamer@framepages {3}{3}}
\headcommand {\beamer@subsectionentry {0}{1}{2}{4}{Green's Functions}}\headcommand {\beamer@subsectionpages {3}{3}}
\headcommand {\slideentry {1}{2}{1}{4/4}{Green's Functions}{0}}
\headcommand {\beamer@framepages {4}{4}}
\headcommand {\beamer@subsectionentry {0}{1}{3}{5}{Properties of 1D Green's functions}}\headcommand {\beamer@subsectionpages {4}{4}}
\headcommand {\slideentry {1}{3}{1}{5/5}{Properties of 1D Green's functions}{0}}
\headcommand {\beamer@framepages {5}{5}}
\headcommand {\slideentry {1}{3}{2}{6/6}{Properties of 1D Green's functions}{0}}
\headcommand {\beamer@framepages {6}{6}}
\headcommand {\slideentry {1}{3}{3}{7/7}{Properties of 1D Green's functions}{0}}
\headcommand {\beamer@framepages {7}{7}}
\headcommand {\slideentry {1}{3}{4}{8/8}{Properties of 1D Green's functions}{0}}
\headcommand {\beamer@framepages {8}{8}}
\headcommand {\slideentry {1}{3}{5}{9/9}{Properties of 1D Green's functions}{0}}
\headcommand {\beamer@framepages {9}{9}}
\headcommand {\slideentry {1}{3}{6}{10/10}{Properties of 1D Green's functions}{0}}
\headcommand {\beamer@framepages {10}{10}}
\headcommand {\sectionentry {2}{Applications and Examples}{11}{Applications and Examples}{0}}
\headcommand {\beamer@sectionpages {3}{10}}
\headcommand {\beamer@subsectionpages {5}{10}}
\headcommand {\beamer@subsectionentry {0}{2}{1}{11}{Simple Second-Order ODE}}\headcommand {\beamer@subsectionpages {11}{10}}
\headcommand {\slideentry {2}{1}{1}{11/11}{Simple Second-Order ODE}{0}}
\headcommand {\beamer@framepages {11}{11}}
\headcommand {\beamer@subsectionentry {0}{2}{2}{12}{Coulomb's Law}}\headcommand {\beamer@subsectionpages {11}{11}}
\headcommand {\slideentry {2}{2}{1}{12/12}{Coulomb's Law}{0}}
\headcommand {\beamer@framepages {12}{12}}
\headcommand {\slideentry {2}{2}{2}{13/13}{Coulomb's Law}{0}}
\headcommand {\beamer@framepages {13}{13}}
\headcommand {\slideentry {2}{2}{3}{14/14}{Coulomb's Law}{0}}
\headcommand {\beamer@framepages {14}{14}}
\headcommand {\beamer@partpages {1}{14}}
\headcommand {\beamer@subsectionpages {12}{14}}
\headcommand {\beamer@sectionpages {11}{14}}
\headcommand {\beamer@documentpages {14}}
\headcommand {\def \inserttotalframenumber {14}}
