\relax 
\providecommand\hyper@newdestlabel[2]{}
\providecommand\HyperFirstAtBeginDocument{\AtBeginDocument}
\HyperFirstAtBeginDocument{\ifx\hyper@anchor\@undefined
\global\let\oldcontentsline\contentsline
\gdef\contentsline#1#2#3#4{\oldcontentsline{#1}{#2}{#3}}
\global\let\oldnewlabel\newlabel
\gdef\newlabel#1#2{\newlabelxx{#1}#2}
\gdef\newlabelxx#1#2#3#4#5#6{\oldnewlabel{#1}{{#2}{#3}}}
\AtEndDocument{\ifx\hyper@anchor\@undefined
\let\contentsline\oldcontentsline
\let\newlabel\oldnewlabel
\fi}
\fi}
\global\let\hyper@last\relax 
\gdef\HyperFirstAtBeginDocument#1{#1}
\providecommand\HyField@AuxAddToFields[1]{}
\providecommand\HyField@AuxAddToCoFields[2]{}
\@writefile{toc}{\beamer@endinputifotherversion {3.36pt}}
\@writefile{nav}{\beamer@endinputifotherversion {3.36pt}}
\@writefile{nav}{\headcommand {\slideentry {0}{0}{1}{1/1}{}{0}}}
\@writefile{nav}{\headcommand {\beamer@framepages {1}{1}}}
\@writefile{nav}{\headcommand {\slideentry {0}{0}{2}{2/2}{}{0}}}
\@writefile{nav}{\headcommand {\beamer@framepages {2}{2}}}
\@writefile{toc}{\beamer@sectionintoc {1}{1D Green's Functions}{3}{0}{1}}
\@writefile{nav}{\headcommand {\sectionentry {1}{1D Green's Functions}{3}{1D Green's Functions}{0}}}
\@writefile{nav}{\headcommand {\beamer@sectionpages {1}{2}}}
\@writefile{nav}{\headcommand {\beamer@subsectionpages {1}{2}}}
\@writefile{toc}{\beamer@subsectionintoc {1}{1}{Motivation}{3}{0}{1}}
\@writefile{nav}{\headcommand {\beamer@subsectionentry {0}{1}{1}{3}{Motivation}}\headcommand {\beamer@subsectionpages {3}{2}}}
\@writefile{snm}{\beamer@slide {ODE}{3}}
\newlabel{ODE}{{1}{3}{Motivation}{Doc-Start}{}}
\@writefile{snm}{\beamer@slide {Green}{3}}
\newlabel{Green}{{2}{3}{Motivation}{Doc-Start}{}}
\@writefile{nav}{\headcommand {\slideentry {1}{1}{1}{3/3}{Motivation}{0}}}
\@writefile{nav}{\headcommand {\beamer@framepages {3}{3}}}
\@writefile{toc}{\beamer@subsectionintoc {1}{2}{Green's Functions}{4}{0}{1}}
\@writefile{nav}{\headcommand {\beamer@subsectionentry {0}{1}{2}{4}{Green's Functions}}\headcommand {\beamer@subsectionpages {3}{3}}}
\@writefile{snm}{\beamer@slide {LGd}{4}}
\newlabel{LGd}{{3}{4}{Green's Functions}{Doc-Start}{}}
\@writefile{nav}{\headcommand {\slideentry {1}{2}{1}{4/4}{Green's Functions}{0}}}
\@writefile{nav}{\headcommand {\beamer@framepages {4}{4}}}
\@writefile{toc}{\beamer@subsectionintoc {1}{3}{Properties of 1D Green's functions}{5}{0}{1}}
\@writefile{nav}{\headcommand {\beamer@subsectionentry {0}{1}{3}{5}{Properties of 1D Green's functions}}\headcommand {\beamer@subsectionpages {4}{4}}}
\@writefile{snm}{\beamer@slide {int}{5}}
\newlabel{int}{{4}{5}{Properties of 1D Green's functions}{Doc-Start}{}}
\@writefile{nav}{\headcommand {\slideentry {1}{3}{1}{5/5}{Properties of 1D Green's functions}{0}}}
\@writefile{nav}{\headcommand {\beamer@framepages {5}{5}}}
\@writefile{snm}{\beamer@slide {deriv}{6}}
\newlabel{deriv}{{5}{6}{Properties of 1D Green's functions}{Doc-Start}{}}
\@writefile{nav}{\headcommand {\slideentry {1}{3}{2}{6/6}{Properties of 1D Green's functions}{0}}}
\@writefile{nav}{\headcommand {\beamer@framepages {6}{6}}}
\@writefile{snm}{\beamer@slide {eq:ortho}{7}}
\newlabel{eq:ortho}{{6}{7}{Properties of 1D Green's functions}{Doc-Start}{}}
\@writefile{nav}{\headcommand {\slideentry {1}{3}{3}{7/7}{Properties of 1D Green's functions}{0}}}
\@writefile{nav}{\headcommand {\beamer@framepages {7}{7}}}
\@writefile{snm}{\beamer@slide {eq:green}{8}}
\newlabel{eq:green}{{8}{8}{Properties of 1D Green's functions}{Doc-Start}{}}
\@writefile{nav}{\headcommand {\slideentry {1}{3}{4}{8/8}{Properties of 1D Green's functions}{0}}}
\@writefile{nav}{\headcommand {\beamer@framepages {8}{8}}}
\@writefile{nav}{\headcommand {\slideentry {1}{3}{5}{9/9}{Properties of 1D Green's functions}{0}}}
\@writefile{nav}{\headcommand {\beamer@framepages {9}{9}}}
\@writefile{snm}{\beamer@slide {eq:A}{10}}
\newlabel{eq:A}{{9}{10}{Properties of 1D Green's functions}{Doc-Start}{}}
\@writefile{nav}{\headcommand {\slideentry {1}{3}{6}{10/10}{Properties of 1D Green's functions}{0}}}
\@writefile{nav}{\headcommand {\beamer@framepages {10}{10}}}
\@writefile{toc}{\beamer@sectionintoc {2}{Applications and Examples}{11}{0}{2}}
\@writefile{nav}{\headcommand {\sectionentry {2}{Applications and Examples}{11}{Applications and Examples}{0}}}
\@writefile{nav}{\headcommand {\beamer@sectionpages {3}{10}}}
\@writefile{nav}{\headcommand {\beamer@subsectionpages {5}{10}}}
\@writefile{toc}{\beamer@subsectionintoc {2}{1}{Simple Second-Order ODE}{11}{0}{2}}
\@writefile{nav}{\headcommand {\beamer@subsectionentry {0}{2}{1}{11}{Simple Second-Order ODE}}\headcommand {\beamer@subsectionpages {11}{10}}}
\@writefile{nav}{\headcommand {\slideentry {2}{1}{1}{11/11}{Simple Second-Order ODE}{0}}}
\@writefile{nav}{\headcommand {\beamer@framepages {11}{11}}}
\@writefile{toc}{\beamer@subsectionintoc {2}{2}{Coulomb's Law}{12}{0}{2}}
\@writefile{nav}{\headcommand {\beamer@subsectionentry {0}{2}{2}{12}{Coulomb's Law}}\headcommand {\beamer@subsectionpages {11}{11}}}
\@writefile{snm}{\beamer@slide {eq:poisson}{12}}
\newlabel{eq:poisson}{{10}{12}{Coulomb's Law}{Doc-Start}{}}
\@writefile{snm}{\beamer@slide {point}{12}}
\newlabel{point}{{11}{12}{Coulomb's Law}{Doc-Start}{}}
\@writefile{nav}{\headcommand {\slideentry {2}{2}{1}{12/12}{Coulomb's Law}{0}}}
\@writefile{nav}{\headcommand {\beamer@framepages {12}{12}}}
\@writefile{snm}{\beamer@slide {eq:coul}{13}}
\newlabel{eq:coul}{{12}{13}{Coulomb's Law}{Doc-Start}{}}
\@writefile{nav}{\headcommand {\slideentry {2}{2}{2}{13/13}{Coulomb's Law}{0}}}
\@writefile{nav}{\headcommand {\beamer@framepages {13}{13}}}
\@writefile{nav}{\headcommand {\slideentry {2}{2}{3}{14/14}{Coulomb's Law}{0}}}
\@writefile{nav}{\headcommand {\beamer@framepages {14}{14}}}
\@writefile{nav}{\headcommand {\beamer@partpages {1}{14}}}
\@writefile{nav}{\headcommand {\beamer@subsectionpages {12}{14}}}
\@writefile{nav}{\headcommand {\beamer@sectionpages {11}{14}}}
\@writefile{nav}{\headcommand {\beamer@documentpages {14}}}
\@writefile{nav}{\headcommand {\def \inserttotalframenumber {14}}}
