\relax 
\providecommand\hyper@newdestlabel[2]{}
\providecommand\HyperFirstAtBeginDocument{\AtBeginDocument}
\HyperFirstAtBeginDocument{\ifx\hyper@anchor\@undefined
\global\let\oldcontentsline\contentsline
\gdef\contentsline#1#2#3#4{\oldcontentsline{#1}{#2}{#3}}
\global\let\oldnewlabel\newlabel
\gdef\newlabel#1#2{\newlabelxx{#1}#2}
\gdef\newlabelxx#1#2#3#4#5#6{\oldnewlabel{#1}{{#2}{#3}}}
\AtEndDocument{\ifx\hyper@anchor\@undefined
\let\contentsline\oldcontentsline
\let\newlabel\oldnewlabel
\fi}
\fi}
\global\let\hyper@last\relax 
\gdef\HyperFirstAtBeginDocument#1{#1}
\providecommand\HyField@AuxAddToFields[1]{}
\providecommand\HyField@AuxAddToCoFields[2]{}
\select@language{english}
\@writefile{toc}{\select@language{english}}
\@writefile{lof}{\select@language{english}}
\@writefile{lot}{\select@language{english}}
\@writefile{toc}{\contentsline {section}{\numberline {1}General Introduction}{1}{section.1}}
\@writefile{toc}{\contentsline {paragraph}{Goal of course:}{1}{section*.2}}
\@writefile{toc}{\contentsline {section}{\numberline {2}Statistics}{2}{section.2}}
\@writefile{toc}{\contentsline {paragraph}{Steps}{2}{section*.3}}
\@writefile{toc}{\contentsline {section}{\numberline {3}Sampling Statistics}{2}{section.3}}
\@writefile{toc}{\contentsline {subsection}{\numberline {3.1}Point Estimation}{2}{subsection.3.1}}
\@writefile{toc}{\contentsline {subsection}{\numberline {3.2}Hypothesis Testing}{3}{subsection.3.2}}
\@writefile{toc}{\contentsline {subsection}{\numberline {3.3}Wackerly Sampling Dists Intro}{4}{subsection.3.3}}
\@writefile{toc}{\contentsline {subsection}{\numberline {3.4}Sampling Distributions Related to the Normal Distribution}{5}{subsection.3.4}}
\@writefile{toc}{\contentsline {subsection}{\numberline {3.5}Central Limit Theorem}{5}{subsection.3.5}}
